accountsservice 0.6.45-1ubuntu1
acl 2.2.52-3build1
acpi-support 0.142
acpid 1:2.0.28-1ubuntu1
adduser 3.118
adium-theme-ubuntu 0.3.4-0ubuntu4
adwaita-icon-theme 3.36.0-1
agent-transfer 0.41-1ubuntu1
alsa-base 1.0.25+dfsg-0ubuntu5
alsa-utils 1.1.3-1ubuntu1
amd64-microcode 3.20191021.1+really3.20181128.1~ubuntu0.18.04.1
anacron 2.3-24
ant 1.10.5-3~18.04
ant-optional 1.10.5-3~18.04
apache2 2.4.29-1ubuntu4.13
apache2-bin 2.4.29-1ubuntu4.13
apache2-data 2.4.29-1ubuntu4.13
apache2-utils 2.4.29-1ubuntu4.13
apg 2.2.3.dfsg.1-5
app-install-data-partner 16.04
apparmor 2.12-4ubuntu5.1
apparmor-easyprof 2.12-4ubuntu5.1
apparmor-profiles 2.12-4ubuntu5.1
apparmor-utils 2.12-4ubuntu5.1
apport 2.20.9-0ubuntu7.15
apport-gtk 2.20.9-0ubuntu7.15
apport-symptoms 0.20
appstream 0.12.0-3ubuntu1
apt 1.6.12ubuntu0.1
apt-config-icons 0.12.0-3ubuntu1
apt-show-versions 0.22.7ubuntu1
apt-utils 1.6.12ubuntu0.1
aptdaemon 1.1.1+bzr982-0ubuntu19.3
aptdaemon-data 1.1.1+bzr982-0ubuntu19.3
aptitude 0.8.10-6ubuntu1
aptitude-common 0.8.10-6ubuntu1
apturl 0.5.2ubuntu14.2
apturl-common 0.5.2ubuntu14.2
asciidoc 8.6.10-2
asciidoc-base 8.6.10-2
asciidoc-common 8.6.10-2
aspell 0.60.7~20110707-4ubuntu0.1
aspell-en 2017.08.24-0-0.1
at 3.1.20-3.1ubuntu2
at-spi2-core 2.28.0-1
attr 1:2.4.47-2build1
augeas-lenses 1.10.1-2
autoconf 2.69-11.1
automake 1:1.16.2-1
autopoint 0.19.8.1-6ubuntu0.3
autotools-dev 20180224.1
avahi-autoipd 0.7-3.1ubuntu1.2
avahi-daemon 0.7-3.1ubuntu1.2
avahi-utils 0.7-3.1ubuntu1.2
base-files 10.1ubuntu2.8
base-passwd 3.5.44
bash 4.4.18-2ubuntu1.2
bash-completion 1:2.8-1ubuntu1
bc 1.07.1-2
bind9 1:9.11.3+dfsg-1ubuntu1.12
bind9-doc 1:9.11.3+dfsg-1ubuntu1.12
bind9-host 1:9.11.3+dfsg-1ubuntu1.12
bind9utils 1:9.11.3+dfsg-1ubuntu1.12
binfmt-support 2.1.8-2
binutils 2.30-21ubuntu1~18.04.3
 
binutils-dev 2.30-21ubuntu1~18.04.3
binutils-x86-64-linux-gnu 2.30-21ubuntu1~18.04.3
bison 2:3.0.4.dfsg-1build1
blt 2.5.3+dfsg-4
bluez 5.48-0ubuntu3.4
bluez-cups 5.48-0ubuntu3.4
bluez-obexd 5.48-0ubuntu3.4
bolt 0.5-0ubuntu0.18.04.1
breeze-icon-theme 4:5.44.0-0ubuntu1
brltty 5.5-4ubuntu2.0.1
bro-common 2.5.3-1build1
bsdmainutils 11.1.2ubuntu1
bsdutils 1:2.31.1-0.4ubuntu3.6
bubblewrap 0.2.1-1ubuntu0.1
build-essential 12.4ubuntu1
bundler 2.1.4-1
busybox-initramfs 1:1.27.2-2ubuntu3.2
busybox-static 1:1.27.2-2ubuntu3.2
bzip2 1.0.6-8.1ubuntu0.2
ca-certificates 20190110
ca-certificates-java 20190909
ca-certificates-mono 4.6.2.7+dfsg-1ubuntu1
cabextract 1.6-1.1
cardpeek 0.8.4-1build3
cardpeek-data 0.8.4-1build3
catimg 2.4.0-1
certbot 0.27.0-1~ubuntu18.04.1
cheese-common 3.28.0-1ubuntu1
chkrootkit 0.52-1ubuntu0.1
chromium-browser 81.0.4044.138-0ubuntu0.18.04.1
chromium-browser-l10n 81.0.4044.138-0ubuntu0.18.04.1
chromium-codecs-ffmpeg-extra 81.0.4044.138-0ubuntu0.18.04.1
clamav 0.102.3+dfsg-0ubuntu0.18.04.1
clamav-base 0.102.3+dfsg-0ubuntu0.18.04.1
clamav-daemon 0.102.3+dfsg-0ubuntu0.18.04.1
clamav-docs 0.102.3+dfsg-0ubuntu0.18.04.1
clamav-freshclam 0.102.3+dfsg-0ubuntu0.18.04.1
clamdscan 0.102.3+dfsg-0ubuntu0.18.04.1
clamtk 5.25-1
clamtk-gnome 5.25-1
clamtk-nautilus 5.25-1
cli-common 0.9+nmu1
cmake 3.10.2-1ubuntu2.18.04.1
cmake-data 3.10.2-1ubuntu2.18.04.1
cndrvcups-common 4.00-1804
cndrvcups-ufr2-uk 3.60-1804+1
cndrvcups-utility 1.10-1804+2
 
 
cnijfilter2 5.90-1+1804+1ubuntu1
cnrcupsd1600zk 5.00-1804+1ubunutu1
cnrcupsiprc165zk 5.00-1804+1ubunutu1
cnrcupsiprc710zk 5.00-1804+1ubunutu1
cnrcupsir1643izk 5.00-1804+1ubunutu1
cnrcupsir1643pzk 5.00-1804+1ubunutu1
cnrcupsir2625zk 5.00-1804+1ubunutu1
cnrcupsir2635zk 5.00-1804+1ubunutu1
cnrcupsiradv45253zk 5.00-1804+1ubunutu1
cnrcupsiradv45453zk 5.00-1804+1ubunutu1
cnrcupsiradv5253zk 5.00-1804+1ubunutu1
cnrcupsiradv525zk 5.00-1804+1ubunutu1
cnrcupsiradv6153zk 5.00-1804+1ubunutu1
cnrcupsiradv615zk 5.00-1804+1ubunutu1
cnrcupsiradv65553zk 5.00-1804+1ubunutu1
cnrcupsiradv65753zk 5.00-1804+1ubunutu1
cnrcupsiradv7153zk 5.00-1804+1ubunutu1
cnrcupsiradv715zk 5.00-1804+1ubunutu1
cnrcupsiradv85053zk 5.00-1804+1ubunutu1
cnrcupsiradv85853zk 5.00-1804+1ubunutu1
cnrcupsiradvc2563zk 5.00-1804+1ubunutu1
cnrcupsiradvc35203zk 5.00-1804+1ubunutu1
cnrcupsiradvc35253zk 5.00-1804+1ubunutu1
cnrcupsiradvc4753zk 5.00-1804+1ubunutu1
cnrcupsiradvc55353zk 5.00-1804+1ubunutu1
cnrcupsiradvc55503zk 5.00-1804+1ubunutu1
cnrcupsiradvc75653zk 5.00-1804+1ubunutu1
cnrcupsiradvc75803zk 5.00-1804+1ubunutu1
cnrcupslbp222zk 5.00-1804+1ubunutu1
cnrcupslbp223zk 5.00-1804+1ubunutu1
cnrcupslbp225zk 5.00-1804+1ubunutu1
cnrcupslbp226zk 5.00-1804+1ubunutu1
cnrcupslbp227zk 5.00-1804+1ubunutu1
cnrcupslbp228zk 5.00-1804+1ubunutu1
cnrcupslbp323zk 5.00-1804+1ubunutu1
cnrcupslbp621czk 5.00-1804+1ubunutu1
cnrcupslbp622czk 5.00-1804+1ubunutu1
cnrcupslbp663czk 5.00-1804+1ubunutu1
cnrcupslbp664czk 5.00-1804+1ubunutu1
cnrcupslbp852czk 5.00-1804+1ubunutu1
cnrcupsmf440zk 5.00-1804+1ubunutu1
cnrcupsmf540zk 5.00-1804+1ubunutu1
cnrcupsmf641czk 5.00-1804+1ubunutu1
cnrcupsmf642czk 5.00-1804+1ubunutu1
cnrcupsmf645czk 5.00-1804+1ubunutu1
cnrcupsmf741czk 5.00-1804+1ubunutu1
cnrcupsmf742czk 5.00-1804+1ubunutu1
cnrcupsmf745czk 5.00-1804+1ubunutu1
cnrcupswg7000zk 5.00-1804+1ubunutu1
cnrcupswg7000zzk 5.00-1804+1ubunutu1
cnrdrvcups-ufr2-uk 5.00-1804+1ubunutu1
colord 1.3.3-2build1
colord-data 1.3.3-2build1
colordiff 1.0.18-1
command-not-found 18.04.5
command-not-found-data 18.04.5
console-setup 1.195
console-setup-linux 1.195
conspy 1.14-1build1
coreutils 8.28-1ubuntu1
cpio 2.12+dfsg-6ubuntu0.18.04.1
cpp 4:7.4.0-1ubuntu2.3
cpp-7 7.5.0-3ubuntu1~18.04
cpp-9 9.3.0-10
cpu-checker 0.7-0ubuntu7
cracklib-runtime 2.9.2-5build1
crda 3.18-1build1
cron 3.0pl1-128.1ubuntu1
cryfs 0.9.9-1ubuntu1
cryptsetup 2:2.0.2-1ubuntu1.1
cryptsetup-bin 2:2.0.2-1ubuntu1.1
cups 2.2.7-1ubuntu2.8
cups-browsed 1.20.2-0ubuntu3.1
cups-bsd 2.2.7-1ubuntu2.8
cups-client 2.2.7-1ubuntu2.8
cups-common 2.2.7-1ubuntu2.8
cups-core-drivers 2.2.7-1ubuntu2.8
cups-daemon 2.2.7-1ubuntu2.8
cups-filters 1.20.2-0ubuntu3.1
cups-filters-core-drivers 1.20.2-0ubuntu3.1
cups-ipp-utils 2.2.7-1ubuntu2.8
cups-pk-helper 0.2.6-1ubuntu1.2
cups-ppdc 2.2.7-1ubuntu2.8
cups-server-common 2.2.7-1ubuntu2.8
curl 7.58.0-2ubuntu3.8
cutecom 0.30.3-1
darkstat 3.0.719-1build1
dash 0.5.8-2.10
davfs2 1.5.4-2
db-util 1:5.3.21~exp1ubuntu2
db5.3-util 5.3.28-13.1ubuntu1.1
dbconfig-common 2.0.9
dbconfig-mysql 2.0.9
dbconfig-pgsql 2.0.9
dbus 1.12.2-1ubuntu1.1
dbus-user-session 1.12.2-1ubuntu1.1
dbus-x11 1.12.2-1ubuntu1.1
dc 1.07.1-2
dconf-cli 0.26.0-2ubuntu3
 
dconf-service 0.26.0-2ubuntu3
dctrl-tools 2.24-2build1
debconf 1.5.73
debconf-i18n 1.5.73
debconf-utils 1.5.73
debhelper 11.1.6ubuntu2
debian-archive-keyring 2019.1
debianutils 4.8.4
debootstrap 1.0.95ubuntu0.6
default-jdk-headless 2:1.11-72
default-jre-headless 2:1.11-72
dehydrated 0.6.2-2ubuntu0.18.04.1
dehydrated-apache2 0.6.2-2ubuntu0.18.04.1
dehydrated-hook-ddns-tsig 0.1.2-3
desktop-file-utils 0.23-1ubuntu3.18.04.2
devscripts 2.17.12ubuntu1.1
dh-autoreconf 17
dh-python 3.20180325ubuntu2
dh-strip-nondeterminism 0.040-1.1~build1
dh-systemd 11.1.6ubuntu2
dictionaries-common 1.27.2
diffstat 1.61-1build1
diffutils 1:3.6-1
dirdiff 2.1-7.1
dirmngr 2.2.4-1ubuntu1.2
distro-info-data 0.37ubuntu0.7
dkms 2.8.1-5
dmeventd 2:1.02.145-4.1ubuntu3.18.04.3
dmidecode 3.1-1ubuntu0.1
dms-core 1.0.8.1-1ubuntu1
dms-dr 1.0.8.1-1ubuntu1
dms-wsgi 1.0.8.1-1ubuntu1
dmsetup 2:1.02.145-4.1ubuntu3.18.04.3
dmz-cursor-theme 0.4.5ubuntu1
dns-root-data 2018013001
dnsmasq-base 2.79-1
dnsutils 1:9.11.3+dfsg-1ubuntu1.12
docbook-dsssl 1.79-9.1
docbook-utils 0.6.14-3.3
docbook-xml 4.5-8
docbook-xsl 1.79.1+dfsg-2
docutils-common 0.14+dfsg-3
dosfstools 4.1-1
doublecmd-common 0.8.2-1
doublecmd-gtk 0.8.2-1
doublecmd-help-uk 0.8.0-1
doublecmd-plugins 0.8.2-1
dovecot-core 1:2.2.33.2-1ubuntu4.5
dovecot-imapd 1:2.2.33.2-1ubuntu4.5
dovecot-pop3d 1:2.2.33.2-1ubuntu4.5
dpkg 1.19.0.5ubuntu2.3
dpkg-dev 1.19.7kali1
dput 1.0.1ubuntu1
dsniff 2.4b1+debian-28.1~build1
e2fsprogs 1.44.1-1ubuntu1.3
ecryptfs-utils 111-0ubuntu5
ed 1.10-2.1
efibootmgr 15-1
eject 2.1.5+deb1+cvs20081104-13.2
emacsen-common 2.0.8
encfs 1.9.2-2build2
enchant 1.6.0-11.1
enpass 6.4.1.643
eog 3.28.1-1
equivs 2.1.0
 
esptool 2.1+dfsg1-2
etckeeper 1.18.5-1ubuntu1
etherape 0.9.16-1
etherape-data 0.9.16-1
ethtool 1:4.15-0ubuntu1
ettercap-common 1:0.8.2-10build4
ettercap-graphical 1:0.8.2-10build4
evince 3.28.4-0ubuntu1.2
evince-common 3.28.4-0ubuntu1.2
evolution-data-server 3.28.5-0ubuntu0.18.04.2
evolution-data-server-common 3.28.5-0ubuntu0.18.04.2
exim4 4.90.1-1ubuntu1.5
exim4-base 4.90.1-1ubuntu1.5
exim4-config 4.90.1-1ubuntu1.5
exim4-daemon-light 4.90.1-1ubuntu1.5
fail2ban 0.10.2-2
fakeroot 1.22-2ubuntu1
fdisk 2.31.1-0.4ubuntu3.6
ffmpeg 7:4.1.3-0ppa1~18.04
fig2dev 1:3.2.6a-6ubuntu1
file 1:5.32-2ubuntu0.4
file-roller 3.28.0-1ubuntu1.2
findutils 4.6.0+git+20170828-2
firefox 76.0.1+build1-0ubuntu0.18.04.1
firefox-esr 68.9.0esr+build1-0ubuntu0.18.04.1
firefox-locale-en 76.0.1+build1-0ubuntu0.18.04.1
firefox-locale-uk 76.0.1+build1-0ubuntu0.18.04.1
fldiff 1.1+0-5
flex 2.6.4-6
fontconfig 2.12.6-0ubuntu2
fontconfig-config 2.13.1-2
fonts-beng 2:1.2
fonts-beng-extra 1.0-6ubuntu0.1
fonts-dejavu 2.37-1
fonts-dejavu-core 2.37-1
fonts-dejavu-extra 2.37-1
fonts-deva 2:1.2
fonts-deva-extra 3.0-4ubuntu0.1
fonts-droid-fallback 1:6.0.1r16-1.1
fonts-font-awesome 4.7.0~dfsg-3
fonts-freefont-ttf 20120503-7
fonts-gargi 2.0-4
fonts-gubbi 1.3-3
fonts-gujr 2:1.2
fonts-gujr-extra 1.0-6ubuntu0.1
fonts-guru 2:1.2
fonts-guru-extra 2.0-4ubuntu0.1
fonts-indic 2:1.2
fonts-kacst 2.01+mry-14
fonts-kacst-one 5.0+svn11846-10
fonts-kalapi 1.0-4
fonts-khmeros-core 5.0-7ubuntu1
fonts-knda 2:1.2
fonts-lao 0.0.20060226-9ubuntu1
fonts-lato 2.0-2
fonts-liberation 1:1.07.4-11
fonts-liberation2 2.00.1-7~18.04.2
fonts-lklug-sinhala 0.6-3
fonts-lmodern 2.004.5-3
fonts-lohit-beng-assamese 2.91.5-1
fonts-lohit-beng-bengali 2.91.5-1
fonts-lohit-deva 2.95.4-2
fonts-lohit-gujr 2.92.4-2
fonts-lohit-guru 2.91.2-1
fonts-lohit-knda 2.5.4-1
fonts-lohit-mlym 2.92.2-1
fonts-lohit-orya 2.91.2-1
fonts-lohit-taml 2.91.3-1
fonts-lohit-taml-classical 2.5.4-1
fonts-lohit-telu 2.5.5-1
fonts-lyx 2.2.4-0ubuntu0.18.04.1
fonts-mlym 2:1.2
fonts-nakula 1.0-3
fonts-navilu 1.2-2
fonts-noto-cjk 1:20190409+repack1-0ubuntu0.18.04
fonts-noto-color-emoji 0~20180810-0ubuntu1
fonts-noto-hinted 20171026-2
fonts-noto-mono 20171026-2
fonts-opensymbol 2:102.10+LibO6.0.7-0ubuntu0.18.04.10
fonts-orya 2:1.2
fonts-orya-extra 2.0-5ubuntu0.1
fonts-pagul 1.0-7
fonts-sahadeva 1.0-4
fonts-samyak-deva 1.2.2-4
fonts-samyak-gujr 1.2.2-4
fonts-samyak-mlym 1.2.2-4
fonts-samyak-taml 1.2.2-4
fonts-sarai 1.0-2
fonts-sil-abyssinica 1.500-1
fonts-sil-padauk 3.003-1
fonts-smc 1:7.1
fonts-smc-anjalioldlipi 7.1.2-1
fonts-smc-chilanka 1.500-1
fonts-smc-dyuthi 3.0.2-1
fonts-smc-gayathri 1.100-1
fonts-smc-karumbi 1.1.2-1
fonts-smc-keraleeyam 3.0.2-1
fonts-smc-manjari 1.710-1
fonts-smc-meera 7.0.3-1
fonts-smc-rachana 7.0.2-1
fonts-smc-raghumalayalamsans 2.2.1-1
fonts-smc-suruma 3.2.3-1
fonts-smc-uroob 2.0.2-1
fonts-taml 2:1.3
fonts-telu 2:1.2
fonts-telu-extra 2.0-4
fonts-thai-tlwg 1:0.6.4-2
fonts-tibetan-machine 1.901b-5
fonts-tlwg-garuda 1:0.6.4-2
fonts-tlwg-garuda-ttf 1:0.6.4-2
fonts-tlwg-kinnari 1:0.6.4-2
fonts-tlwg-kinnari-ttf 1:0.6.4-2
fonts-tlwg-laksaman 1:0.6.4-2
fonts-tlwg-laksaman-ttf 1:0.6.4-2
fonts-tlwg-loma 1:0.6.4-2
fonts-tlwg-loma-ttf 1:0.6.4-2
fonts-tlwg-mono 1:0.6.4-2
fonts-tlwg-mono-ttf 1:0.6.4-2
fonts-tlwg-norasi 1:0.6.4-2
fonts-tlwg-norasi-ttf 1:0.6.4-2
fonts-tlwg-purisa 1:0.6.4-2
fonts-tlwg-purisa-ttf 1:0.6.4-2
fonts-tlwg-sawasdee 1:0.6.4-2
fonts-tlwg-sawasdee-ttf 1:0.6.4-2
fonts-tlwg-typewriter 1:0.6.4-2
fonts-tlwg-typewriter-ttf 1:0.6.4-2
fonts-tlwg-typist 1:0.6.4-2
fonts-tlwg-typist-ttf 1:0.6.4-2
fonts-tlwg-typo 1:0.6.4-2
fonts-tlwg-typo-ttf 1:0.6.4-2
fonts-tlwg-umpush 1:0.6.4-2
fonts-tlwg-umpush-ttf 1:0.6.4-2
fonts-tlwg-waree 1:0.6.4-2
fonts-tlwg-waree-ttf 1:0.6.4-2
fonts-ubuntu 0.83-2
fonts-wine 3.0-1ubuntu1
foomatic-db-compressed-ppds 20180306-1
freepats 20060219-1
freeradius 3.0.16+dfsg-1ubuntu3.1
freeradius-common 3.0.16+dfsg-1ubuntu3.1
freeradius-config 3.0.16+dfsg-1ubuntu3.1
freeradius-dhcp 3.0.16+dfsg-1ubuntu3.1
freeradius-ldap 3.0.16+dfsg-1ubuntu3.1
freeradius-mysql 3.0.16+dfsg-1ubuntu3.1
freeradius-utils 3.0.16+dfsg-1ubuntu3.1
freeradius-yubikey 3.0.16+dfsg-1ubuntu3.1
freetds-common 1.00.82-2ubuntu0.1
friendly-recovery 0.2.40
fscrypt 0.2.2-0ubuntu2.1
ftp 0.17-34
fuse 2.9.7-1ubuntu1
fwupd 1.2.10-1ubuntu2~ubuntu18.04.3
fwupd-signed 1.10~ubuntu18.04.3+1.2.10-1ubuntu2~ubuntu18.04.3
fwupdate 12-7~ubuntu18.04.3
fwupdate-signed 12-7~ubuntu18.04.3
g++ 4:7.4.0-1ubuntu2.3
 
gadmin-bind 0.2.5-2build1
gadmin-openvpn-client 0.1.9-1
gadmin-openvpn-server 0.1.5-3.1build1
gadmin-proftpd 1:0.4.2-1build1
gadmin-rsync 0.1.7-1build1
gadmin-samba 0.3.2-0ubuntu2
gawk 1:4.1.4+dfsg-1build1
gcc 4:7.4.0-1ubuntu2.3
 
 
gcc-7 7.5.0-3ubuntu1~18.04
 
 
 
gcc-9 9.3.0-10
 
gconf-service 3.2.6-4ubuntu1
gconf-service-backend 3.2.6-4ubuntu1
gconf2-common 3.2.6-4ubuntu1
gcr 3.28.0-1
gdb 8.1-0ubuntu3.2
gdbserver 8.1-0ubuntu3.2
gdebi-core 0.9.5.7+nmu2
gdisk 1.0.3-1
gdm3 3.28.3-0ubuntu18.04.4
gedit 3.28.1-1ubuntu1.2
gedit-common 3.28.1-1ubuntu1.2
gengetopt 2.22.6+dfsg0-2
genisoimage 9:1.1.11-3ubuntu2
geoclue-2.0 2.4.7-1ubuntu1
geoip-database 20180315-1
gettext 0.19.8.1-6ubuntu0.3
gettext-base 0.19.8.1-6ubuntu0.3
ghostscript 9.26~dfsg+0-0ubuntu0.18.04.12
ghostscript-x 9.26~dfsg+0-0ubuntu0.18.04.12
gir1.2-accountsservice-1.0 0.6.45-1ubuntu1
 
 
 
gir1.2-dee-1.0 1.2.7+17.10.20170616-0ubuntu4
 
 
 
 
 
gir1.2-gdm-1.0 3.28.3-0ubuntu18.04.4
 
 
 
 
 
 
 
gir1.2-gpaste-1.0 3.28.0-2
 
 
 
 
 
 
 
 
 
gir1.2-keybinder-3.0 0.3.2-1
 
 
 
 
 
gir1.2-packagekitglib-1.0 1.1.9-1ubuntu2.18.04.5
 
 
gir1.2-polkit-1.0 0.105-20ubuntu0.18.04.5
 
 
 
 
 
 
 
 
 
 
git 1:2.17.1-1ubuntu0.7
git-man 1:2.26.1-1
gitk 1:2.26.1-1
gjs 1.52.5-0ubuntu18.04.1
gkbd-capplet 3.26.0-3ubuntu0.18.04.1
glances 2.11.1-3
 
glib-networking-common 2.56.0-1
glib-networking-services 2.56.0-1
gnome-accessibility-themes 3.28-1ubuntu1
gnome-bluetooth 3.28.0-2ubuntu0.2
gnome-control-center 1:3.28.2-0ubuntu0.18.04.6
gnome-control-center-data 1:3.28.2-0ubuntu0.18.04.6
gnome-control-center-faces 1:3.28.2-0ubuntu0.18.04.6
gnome-desktop3-data 3.28.2-0ubuntu1.5
gnome-disk-utility 3.28.3-0ubuntu1~18.04.1
gnome-font-viewer 3.28.0-1
gnome-getting-started-docs 3.28.2-0ubuntu0.1
gnome-icon-theme 3.12.0-3
gnome-initial-setup 3.28.0-2ubuntu6.16.04.6
gnome-keyring 3.28.0.2-1ubuntu1.18.04.1
 
gnome-menus 3.13.3-11ubuntu1.1
gnome-online-accounts 3.28.0-0ubuntu2.1
gnome-power-manager 3.26.0-1
gnome-screenshot 3.25.0-0ubuntu2
gnome-session-bin 3.28.1-0ubuntu3
gnome-session-canberra 0.30-5ubuntu1
gnome-session-common 3.28.1-0ubuntu3
gnome-settings-daemon 3.28.1-0ubuntu1.3
gnome-settings-daemon-schemas 3.28.1-0ubuntu1.3
gnome-shell 3.28.4-0ubuntu18.04.3
gnome-shell-common 3.28.4-0ubuntu18.04.3
gnome-shell-extension-appindicator 18.04.1
gnome-shell-extension-ubuntu-dock 0.9.1ubuntu18.04.3
gnome-shell-extensions-gpaste 3.28.0-2
gnome-software 3.28.1-0ubuntu4.18.04.15
gnome-software-common 3.28.1-0ubuntu4.18.04.15
gnome-software-plugin-snap 3.28.1-0ubuntu4.18.04.15
gnome-startup-applications 3.28.1-0ubuntu3
gnome-terminal 3.28.2-1ubuntu1~18.04.1
gnome-terminal-data 3.28.2-1ubuntu1~18.04.1
 
gnome-themes-extra-data 3.28-1ubuntu1
gnome-user-docs 3.28.2+git20180715-0ubuntu0.1
gnome-user-guide 3.28.2+git20180715-0ubuntu0.1
gnupg 2.2.4-1ubuntu1.2
gnupg-agent 2.2.20-1
gnupg-l10n 2.2.20-1
gnupg-utils 2.2.4-1ubuntu1.2
gnupg2 2.2.4-1ubuntu1.2
gnustep-base-common 1.25.1-2ubuntu3
gnustep-base-runtime 1.25.1-2ubuntu3
gnustep-common 2.7.0-3
gnutls-bin 3.5.18-1ubuntu1.3
golang-1.14-go 1.14.2-1longsleep1+bionic
golang-1.14-src 1.14.2-1longsleep1+bionic
golang-docker-credential-helpers 0.5.0-2
golang-go 2:1.14-1longsleep1+bionic
golang-src 2:1.14-1longsleep1+bionic
google-chrome-stable 83.0.4103.61-1
goopg 0.3.1-9
gparted 0.30.0-3ubuntu2
gpaste 3.28.0-2
gpg 2.2.4-1ubuntu1.2
gpg-agent 2.2.4-1ubuntu1.2
gpg-wks-client 2.2.4-1ubuntu1.2
gpg-wks-server 2.2.4-1ubuntu1.2
gpgconf 2.2.4-1ubuntu1.2
gpgsm 2.2.4-1ubuntu1.2
gpgv 2.2.4-1ubuntu1.2
grep 3.1-2build1
 
groff-base 1.22.3-10
grub-common 2.02-2ubuntu8.15
grub-gfxpayload-lists 0.7
grub-pc 2.02-2ubuntu8.15
grub-pc-bin 2.02-2ubuntu8.15
grub2-common 2.02-2ubuntu8.15
gsad 9.0.0-1
gsettings-desktop-schemas 3.28.0-1ubuntu1
gsettings-ubuntu-schemas 0.0.7+17.10.20170922-0ubuntu1
gsfonts 1:8.11+urwcyr1.0.7~pre44-4.4
 
 
 
 
 
gstreamer1.0-packagekit 1.1.9-1ubuntu2.18.04.5
 
 
gstreamer1.0-plugins-base-apps 1.14.5-0ubuntu1~18.04.1
 
 
 
gstreamer1.0-tools 1.14.5-0ubuntu1~18.04.1
 
 
gtk-update-icon-cache 3.22.30-1ubuntu4
 
 
 
 
gvfs-backends 1.36.1-0ubuntu1.3.3
gvfs-bin 1.36.1-0ubuntu1.3.3
gvfs-common 1.36.1-0ubuntu1.3.3
gvfs-daemons 1.36.1-0ubuntu1.3.3
gvfs-fuse 1.36.1-0ubuntu1.3.3
 
gvm 11.0.0-1
gvm-tools 2.0.0-1
gvmd-common 9.0.0-1
gvmd-pg 9.0.0-1
gzip 1.6-5ubuntu1
haveged 1.9.1-6
hddtemp 0.3-beta15-53
hdparm 9.54+ds-1
hicolor-icon-theme 0.17-2
highlight 3.41-1
highlight-common 3.41-1
hopenpgp-tools 0.20-1
hostname 3.20
hping3 3.a2.ds2-7
hplip 3.17.10+repack0-5
hplip-data 3.17.10+repack0-5
htop 2.1.0-3
humanity-icon-theme 0.6.15
hunspell-en-au 1:2017.08.24
hunspell-en-ca 1:2017.08.24
hunspell-en-gb 1:6.0.3-3
hunspell-en-us 1:2017.08.24
hunspell-en-za 1:6.0.3-3
hunspell-uk 1:6.0.3-3
hunt 1.5-6.1build1
 
ibus 1.5.17-3ubuntu5.3
 
 
ibus-table 1.9.14-3
 
icoutils 0.32.3-1
iftop 1.0~pre4-4
ifupdown 0.8.17ubuntu1.1
iio-sensor-proxy 2.4-2
im-config 0.34-1ubuntu1.3
imagemagick 8:6.9.7.4+dfsg-16ubuntu6.8
imagemagick-6-common 8:6.9.7.4+dfsg-16ubuntu6.8
imagemagick-6.q16 8:6.9.7.4+dfsg-16ubuntu6.8
info 6.5.0.dfsg.1-2
init 1.51
init-system-helpers 1.57+kali1
initramfs-tools 0.136
initramfs-tools-bin 0.130ubuntu3.9
initramfs-tools-core 0.136
inputattach 1:1.6.0-2
install-info 6.5.0.dfsg.1-2
intel-microcode 3.20191115.1ubuntu0.18.04.2
intltool-debian 0.35.0+20060710.4
iog 1.03-3.6
iotop 0.6-2
ipcalc 0.41-5
ippusbxd 1.32-2
iproute2 4.15.0-2ubuntu1.1
iptables 1.6.1-2ubuntu2
iptotal 0.3.3-13.1
iptraf 1:1.1.4-6
iptraf-ng 1:1.1.4-6
iputils-arping 3:20161105-1ubuntu3
iputils-ping 3:20161105-1ubuntu3
iputils-tracepath 3:20161105-1ubuntu3
ipxe-qemu 1.0.0+git-20180124.fbe8c52d-0ubuntu2.2
ipxe-qemu-256k-compat-efi-roms 1.0.0+git-20150424.a25a16d-0ubuntu2
irqbalance 1.3.0-0.1ubuntu0.18.04.1
isc-dhcp-client 4.3.5-3ubuntu7.1
isc-dhcp-common 4.3.5-3ubuntu7.1
isc-dhcp-server 4.3.5-3ubuntu7.1
iso-codes 3.79-1
iucode-tool 2.3.1-1
iw 4.14-0.1
java-common 0.72
javascript-common 11
jdk-11.0.4 11.0.4-1
jnettop 0.13.0-1ubuntu3
john 1.8.0-2build1
john-data 1.8.0-2build1
jsvc 1.0.15-8
kali-menu 2020.2.0
kbd 2.0.4-2ubuntu1
kde-runtime 4:17.08.3-0ubuntu1
kde-runtime-data 4:17.08.3-0ubuntu1
kde-style-breeze 4:5.12.8-0ubuntu0.1
kde-style-breeze-qt4 4:5.12.8-0ubuntu0.1
kdelibs-bin 4:4.14.38-0ubuntu3.1
kdelibs5-data 4:4.14.38-0ubuntu3.1
kdelibs5-plugins 4:4.14.38-0ubuntu3.1
kdiff3 0.9.98-4
kdiff3-doc 0.9.98-4
kdoctools 4:4.14.38-0ubuntu3.1
keepass2 2.38+dfsg-1
keepass2-plugin-application-indicator 0.4.9+0.6.1
keepass2-plugin-keeagent 0.12.0-1
keepass2-plugin-keepasshttp 1.8.4.2
keepass2-plugin-libdbus 0.4.0+0.7.0
keepass2-plugin-libimagemagick 0.2.9+0.7.0
keepassx 2.0.3-1
keepassxc 2.3.1+dfsg.1-1
keeweb-desktop 1.12.2-1
kernel-wedge 2.96ubuntu3
kerneloops 0.12+git20140509-6ubuntu2
kesl 10.1.0-5960
keyboard-configuration 1.195
keyutils 1.5.9-9.2ubuntu2
kinit 5.44.0-0ubuntu1
kio 5.44.0-0ubuntu1
kismet 2016.07.R1-1.1~build1
kismet-plugins 2016.07.R1-1.1~build1
kleopatra 4:17.12.3-0ubuntu1
klibc-utils 2.0.4-9ubuntu2
kmod 24-1ubuntu3.4
knockd 0.7-1ubuntu1.18.04.2
kodi 2:17.6+dfsg1-1ubuntu1
kodi-addon-dev 2:18.7+git20200520.1011-final-0bionic
kodi-inputstream-adaptive 2.4.5-1~bionic
kodi-inputstream-rtmp 2.0.9-1~bionic
kodi-peripheral-joystick 1.4.9-1~bionic
kodi-pvr-argustv 3.5.6-1~bionic
kodi-pvr-dev 2:17.6+git20180430.1623-final-0bionic
kodi-pvr-filmon 2.4.6-1~bionic
kodi-pvr-hdhomerun 3.4.3-2~bionic
kodi-pvr-hts 4.4.21-1~bionic
kodi-pvr-iptvsimple 3.9.8-1~bionic
kodi-pvr-mediaportal-tvserver 3.5.18-1~bionic
kodi-pvr-mythtv 5.10.16-1~bionic
kodi-pvr-nextpvr 3.3.19-1~bionic
kodi-pvr-njoy 3.4.2-2~bionic
kodi-pvr-pctv 2.4.7-1~bionic
kodi-x11 2:18.7+git20200520.1011-final-0bionic
kpackagelauncherqml 5.44.0-0ubuntu3
kpackagetool5 5.44.0-0ubuntu1
kpartx 0.7.4-2ubuntu3
krb5-locales 1.16-2ubuntu0.1
kse 5.4.2
kwayland-data 4:5.44.0-0ubuntu1
 
language-pack-en 1:18.04+20190718
language-pack-en-base 1:18.04+20180712
language-pack-gnome-en 1:18.04+20190718
language-pack-gnome-en-base 1:18.04+20180712
language-pack-gnome-uk 1:18.04+20180712
language-pack-gnome-uk-base 1:18.04+20180712
language-pack-uk 1:18.04+20180712
language-pack-uk-base 1:18.04+20180712
language-selector-common 0.188.3
language-selector-gnome 0.188.3
laptop-detect 0.16
less 487-0.1
 
 
 
 
 
libafflib0v5 3.7.16-2build2
 
libalgorithm-diff-perl 1.19.03-1
libalgorithm-diff-xs-perl 0.04-5
libalgorithm-merge-perl 0.08-3
libao-common 1.2.2+20180113-1ubuntu1
 
libapache2-mod-authnz-external 3.3.2-0.1
libapache2-mod-php 1:7.2+60ubuntu1
libapache2-mod-php7.2 7.2.24-0ubuntu0.18.04.6
libapache2-mod-wsgi-py3 4.5.17-1ubuntu1
 
libappindicator0.1-cil 12.10.1+18.04.20180322.1-0ubuntu1
libappindicator1 12.10.1+18.04.20180322.1-0ubuntu1
libappindicator3-1 12.10.1+18.04.20180322.1-0ubuntu1
 
 
 
 
 
 
 
libapt-pkg-perl 0.1.33build1
 
 
libarchive-zip-perl 1.60-1ubuntu0.1
 
 
 
 
 
 
 
 
 
 
libasound2-data 1.2.2-2.1
 
 
 
 
 
 
 
 
 
 
libatk-wrapper-java 0.38.0-1
 
 
libatk1.0-data 2.36.0-2
 
 
 
 
 
 
 
 
 
libaudit-common 1:2.8.5-3
 
 
 
libauthen-libwrap-perl 0.23-1build2
libauthen-pam-perl 0.16-3build5
libauthen-sasl-perl 2.1600-1
 
 
 
 
 
 
 
 
 
 
libavcodec-extra 7:4.1.3-0ppa1~18.04
 
 
 
 
 
 
libb-hooks-endofscope-perl 0.21-1
libb-hooks-op-check-perl 0.22-1
 
 
 
libbfio1 20170123-4
 
 
 
libbit-vector-perl 7.4-1build4
 
 
 
 
 
 
 
 
 
 
 
 
 
 
 
 
 
 
 
 
 
 
 
 
 
 
 
libc-bin 2.27-3ubuntu1
libc-dev-bin 2.27-3ubuntu1
libc-l10n 2.30-4
 
 
 
 
 
 
libcairo-gobject-perl 1.004-2build3
 
libcairo-perl 1.106-2build2
 
 
 
 
 
 
 
 
libcap-ng-dev 0.7.7-3.1
 
 
 
libcap2-bin 1:2.25-1.2
 
 
libcarp-clan-perl 6.06-1
 
 
libccid 1.4.29-1
 
libcddb2 1.3.2-5fakesync1
 
 
 
 
 
 
 
libcephfs2 12.2.12-0ubuntu0.18.04.5
libcgi-fast-perl 1:2.15-1
libcgi-pm-perl 4.46-1
libcharon-standard-plugins 5.6.2-1ubuntu2.5
 
 
 
 
 
libclamunrar9 0.101.2-1~ubuntu0.18.04.1
libclass-accessor-perl 0.51-1
libclass-method-modifiers-perl 2.12-1
libclass-methodmaker-perl 2.24-1build4
libclass-xsaccessor-perl 1.19-2build8
libclone-perl 0.39-1
 
 
 
libclutter-1.0-common 1.26.2+dfsg-4
 
 
libcmis-0.5-5v5 0.5.1+git20160603-3build2
libcogl-common 1.22.2-3ubuntu1
 
 
 
 
 
 
 
 
 
libcommon-sense-perl 3.74-2build2
libcommons-daemon-java 1.0.15-8
libconvert-asn1-perl 0.27-2
libconvert-binhex-perl 1.125-1
 
 
 
 
libcrypt-openssl-bignum-perl 0.09-1build1
libcrypt-openssl-rsa-perl 0.28-5build2
libcrypt-rijndael-perl 1.13-1build3
 
 
 
 
 
 
 
 
 
 
 
 
 
 
 
 
 
 
 
 
libdata-dump-perl 1.23-1
libdata-optlist-perl 0.110-1
libdata-perl-perl 0.002009-2
libdate-calc-perl 6.4-1
libdate-calc-xs-perl 6.4-1build3
 
 
 
 
libdbd-mysql-perl 4.046-1
libdbi-perl 1.640-1
 
 
 
 
libdbus-glib2.0-cil 0.6.0-1build1
libdbus2.0-cil 0.8.1-2
 
 
 
 
 
 
 
 
 
 
libdevel-callchecker-perl 0.007-2build1
libdevel-globaldestruction-perl 0.14-1
 
 
libdigest-hmac-perl 1.03+dfsg-1
 
libdistro-info-perl 0.18ubuntu0.18.04.1
libdjvulibre-text 3.5.27.1-8ubuntu0.1
 
libdlrestrictions1 0.15.28ubuntu1
libdns-export1100 1:9.11.3+dfsg-1ubuntu1.12
 
 
 
libdpkg-perl 1.19.7kali1
 
 
libdrm-common 2.4.101-2
 
 
 
 
 
 
 
 
 
 
 
 
 
 
libdynaloader-functions-perl 0.003-1
libdynaloginclient-1-0 1.0.0-3ubuntu4
 
 
 
 
 
 
libecryptfs1 111-0ubuntu5
 
 
 
 
 
 
 
 
 
 
 
 
 
 
 
libemail-valid-perl 1.202-1
 
 
libencode-locale-perl 1.05-1
 
 
 
liberror-perl 0.17029-1
 
 
 
libev4 1:4.22-1
 
 
 
 
 
 
 
 
libewf2 20140608-6.1build1
 
 
 
 
 
 
 
libexporter-tiny-perl 1.000000-2
 
 
libexttextcat-data 3.4.5-1
 
 
 
 
libfcgi-perl 0.78-2build1
 
 
 
 
 
 
 
 
 
 
 
libfile-basedir-perl 0.07-1
libfile-chdir-perl 0.1008-1
libfile-copy-recursive-perl 0.40-1
libfile-desktopentry-perl 0.22-1
libfile-fcntllock-perl 0.22-3build2
libfile-homedir-perl 1.002-1
libfile-listing-perl 6.04-1
libfile-mimeinfo-perl 0.28-1
libfile-stripnondeterminism-perl 0.040-1.1~build1
libfile-which-perl 1.21-1
libfilehandle-unget-perl 0.1628-1
 
 
 
 
libfont-afm-perl 1.20-2
 
 
 
 
libfreeradius3 3.0.16+dfsg-1ubuntu3.1
 
 
 
 
 
libfstrcmp0 0.7.D001-1.1build1
 
 
 
 
 
 
 
 
 
 
 
 
 
 
 
 
 
 
 
 
 
libgcrypt20-dev 1.8.1-4ubuntu1.2
libgd-graph-perl 1.48-2
libgd-perl 2.66-1build1
libgd-text-perl 0.86-9
 
 
libgdata-common 0.17.9-2
 
 
 
 
libgdiplus 4.2-2
 
libgdk-pixbuf2.0-bin 2.36.11-2
libgdk-pixbuf2.0-common 2.36.11-2
libgdm1 3.28.3-0ubuntu18.04.4
 
 
 
 
libgetopt-long-descriptive-perl 0.102-1
 
 
 
 
libgit-wrapper-perl 0.047-1
libgjs0g 1.52.5-0ubuntu18.04.1
 
 
 
 
 
 
 
 
 
 
libglib-object-introspection-perl 0.044-2
libglib-perl 3:1.326-1build1
 
 
libglib2.0-bin 2.56.4-0ubuntu0.18.04.6
libglib2.0-cil 2.12.40-2
libglib2.0-data 2.56.4-0ubuntu0.18.04.6
 
 
 
 
 
 
 
 
 
 
 
 
 
 
 
 
 
 
 
 
libgnomecanvas2-common 2.30.3-3
libgnomekbd-common 3.26.0-3ubuntu0.18.04.1
 
libgnupg-interface-perl 0.52-9
libgnustep-base1.25 1.25.1-2ubuntu3
 
 
 
 
libgoa-1.0-common 3.28.0-0ubuntu2.1
 
 
 
 
libgpaste9 3.28.0-2
libgpg-error-dev 1.27-6
 
 
 
 
 
 
 
libgphoto2-l10n 2.5.16-2
 
 
 
 
libgpod-common 0.8.3-11
 
libgrantlee-textdocument5 5.1.0-2
 
 
 
 
 
libgs9-common 9.26~dfsg+0-0ubuntu0.18.04.12
 
 
 
 
 
libgspell-1-common 1.6.1-1
 
 
libgssapi-perl 0.28-2build5
 
 
 
 
 
 
 
 
 
libgtk-3-bin 3.22.30-1ubuntu4
libgtk-3-common 3.22.30-1ubuntu4
libgtk2-perl 2:1.24992-1build1
 
libgtk2.0-bin 2.24.32-1ubuntu1
libgtk2.0-cil 2.12.40-2
libgtk2.0-common 2.24.32-4
libgtk3-perl 0.032-1
 
 
libgtksourceview-3.0-common 3.24.7-1
 
libgtop2-common 2.38.0-2ubuntu0.18.04.1
 
 
libgutenprint2 5.2.13-2
libgvm 11.0.0-1
libgvm-pg-server0 9.0.0-1
 
libgweather-common 3.28.2-1~ubuntu18.04.1
 
 
 
 
 
 
 
 
 
 
 
 
 
 
 
 
 
libhtml-form-perl 6.03-1
libhtml-format-perl 2.12-1
libhtml-parser-perl 3.72-3build1
libhtml-tagset-perl 3.20-3
libhtml-template-perl 2.97-1
libhtml-tree-perl 5.07-1
libhttp-cookies-perl 6.04-1
libhttp-daemon-perl 6.01-1
libhttp-date-perl 6.02-1
libhttp-message-perl 6.14-1
libhttp-negotiate-perl 6.00-2
 
 
 
 
 
 
 
 
 
 
 
 
 
 
 
 
 
 
 
 
 
 
 
libimport-into-perl 1.002005-1
libindicator3-7 16.10.0+18.04.20180321.1-0ubuntu1
libindicator7 16.10.0+18.04.20180321.1-0ubuntu1
libinput-bin 1.10.4-1ubuntu0.18.04.1
 
libio-html-perl 1.001-1
libio-pty-perl 1:1.08-1.1build4
libio-socket-inet6-perl 2.72-2
libio-socket-ssl-perl 2.060-3~ubuntu18.04.1
libio-string-perl 1.08-3
libio-stringy-perl 2.111-2
 
 
 
 
libipc-run-perl 0.96-1
libipc-system-simple-perl 1.25-4
 
libirs-export160 1:9.11.3+dfsg-1ubuntu1.12
 
 
 
 
libisccfg-export160 1:9.11.3+dfsg-1ubuntu1.12
 
 
 
 
 
 
 
 
 
 
 
 
 
 
 
 
 
 
 
libjs-jquery 3.2.1-1
libjs-jquery-ui 1.12.1+dfsg-5
libjs-modernizr 2.6.2+ds1-1ubuntu1
libjs-sphinxdoc 1.6.7-1ubuntu1
libjs-underscore 1.8.3~dfsg-1
libjs-xmlextras 20060529-1
 
 
 
libjson-glib-1.0-common 1.4.4-2
libjson-perl 2.97001-1
libjson-xs-perl 3.040-1
 
 
 
libkactivities6 4:4.13.3-0ubuntu7
 
libkcmutils4 4:4.14.38-0ubuntu3.1
libkde3support4 4:4.14.38-0ubuntu3.1
libkdeclarative5 4:4.14.38-0ubuntu3.1
libkdecore5 4:4.14.38-0ubuntu3.1
libkdesu5 4:4.14.38-0ubuntu3.1
libkdeui5 4:4.14.38-0ubuntu3.1
libkdewebkit5 4:4.14.38-0ubuntu3.1
libkdnssd4 4:4.14.38-0ubuntu3.1
libkemoticons4 4:4.14.38-0ubuntu3.1
 
 
 
 
 
libkf5auth-data 5.44.0-0ubuntu1
 
libkf5codecs-data 5.44.0-0ubuntu1
 
libkf5completion-data 5.44.0-0ubuntu1
 
libkf5config-bin 5.44.0-0ubuntu1.1
libkf5config-data 5.44.0-0ubuntu1.1
 
 
libkf5configwidgets-data 5.44.0-0ubuntu1
 
libkf5coreaddons-data 5.44.0a-0ubuntu1
 
 
libkf5dbusaddons-bin 5.44.0-0ubuntu1
libkf5dbusaddons-data 5.44.0-0ubuntu1
 
libkf5declarative-data 5.44.0-0ubuntu3
 
 
libkf5emoticons-bin 5.44.0-0ubuntu1
libkf5emoticons-data 5.44.0-0ubuntu1
 
libkf5globalaccel-bin 5.44.0-0ubuntu1
libkf5globalaccel-data 5.44.0-0ubuntu1
 
 
 
libkf5i18n-data 5.44.0-0ubuntu1
 
libkf5iconthemes-bin 5.44.0-0ubuntu1
libkf5iconthemes-data 5.44.0-0ubuntu1
 
 
 
libkf5itemviews-data 5.44.0-0ubuntu1
 
libkf5jobwidgets-data 5.44.0-0ubuntu1
 
libkf5kcmutils-data 5.44.0-0ubuntu1
 
 
 
 
 
libkf5mime-data 17.12.3-0ubuntu1
 
libkf5notifications-data 5.44.0-0ubuntu1
 
libkf5package-data 5.44.0-0ubuntu1
 
libkf5pimtextedit-data 17.12.3-0ubuntu1
 
 
libkf5service-bin 5.44.0-0ubuntu1
libkf5service-data 5.44.0-0ubuntu1
 
 
libkf5solid5-data 5.44.0-0ubuntu1
libkf5sonnet5-data 5.44.0-0ubuntu1
 
 
 
libkf5syntaxhighlighting-data 5.44.0-0ubuntu1
libkf5syntaxhighlighting5 5.44.0-0ubuntu1
libkf5textwidgets-data 5.44.0-0ubuntu1
 
libkf5wallet-bin 5.44.0-0ubuntu1
libkf5wallet-data 5.44.0-0ubuntu1
 
 
libkf5widgetsaddons-data 5.44.0-0ubuntu1
 
libkf5windowsystem-data 5.44.0-0ubuntu1
 
libkf5xmlgui-bin 5.44.0-0ubuntu2
libkf5xmlgui-data 5.44.0-0ubuntu2
 
libkfile4 4:4.14.38-0ubuntu3.1
libkhtml5 4:4.14.38-0ubuntu3.1
libkio5 4:4.14.38-0ubuntu3.1
libkjsapi4 4:4.14.38-0ubuntu3.1
libkjsembed4 4:4.14.38-0ubuntu3.1
 
libkmediaplayer4 4:4.14.38-0ubuntu3.1
 
libknewstuff3-4 4:4.14.38-0ubuntu3.1
libknotifyconfig4 4:4.14.38-0ubuntu3.1
libkntlm4 4:4.14.38-0ubuntu3.1
 
 
libkparts4 4:4.14.38-0ubuntu3.1
 
libkpty4 4:4.14.38-0ubuntu3.1
 
 
 
 
 
libkrosscore4 4:4.14.38-0ubuntu3.1
 
libktexteditor4 4:4.14.38-0ubuntu3.1
 
libkxmlrpcclient4 4:4.14.10-1ubuntu7
 
liblangtag-common 0.6.2-1
 
 
 
 
liblcms2-utils 2.9-1ubuntu0.1
 
 
libldap-common 2.4.49+dfsg-3
 
 
 
liblist-compare-perl 0.53-1
liblist-moreutils-perl 0.416-1build3
 
 
 
 
 
liblocale-gettext-perl 1.07-3build2
 
liblouis-data 3.5.0-1ubuntu0.3
 
liblouisutdml-bin 2.7.0-1
liblouisutdml-data 2.7.0-1
 
 
 
 
 
 
 
 
 
 
libluajit-5.1-common 2.1.0~beta3+dfsg-5.1
 
 
liblwp-mediatypes-perl 6.02-1
liblwp-protocol-https-perl 6.07-2
 
 
 
 
 
 
 
 
libmagic-mgc 1:5.32-2ubuntu0.4
 
 
 
 
libmail-dkim-perl 0.44-1
libmail-mbox-messageparser-perl 1.5105-1
libmail-spf-perl 2.9.0-4
libmailtools-perl 2.18-1
 
 
 
libmbim-proxy 1.18.0-1~ubuntu18.04.1
libmcrypt4 2.5.8-3.3
 
 
 
 
libmicrohttpd12 0.9.59-1
libmime-tools-perl 5.509-1
 
 
 
 
 
 
libmodule-implementation-perl 0.09-1
libmodule-runtime-perl 0.016-1
libmono-2.0-1 4.6.2.7+dfsg-1ubuntu1
libmono-2.0-dev 4.6.2.7+dfsg-1ubuntu1
libmono-accessibility4.0-cil 4.6.2.7+dfsg-1ubuntu1
libmono-cairo4.0-cil 4.6.2.7+dfsg-1ubuntu1
libmono-cecil-private-cil 4.6.2.7+dfsg-1ubuntu1
libmono-cil-dev 4.6.2.7+dfsg-1ubuntu1
libmono-codecontracts4.0-cil 4.6.2.7+dfsg-1ubuntu1
libmono-compilerservices-symbolwriter4.0-cil 4.6.2.7+dfsg-1ubuntu1
libmono-corlib4.5-cil 4.6.2.7+dfsg-1ubuntu1
libmono-cscompmgd0.0-cil 4.6.2.7+dfsg-1ubuntu1
libmono-csharp4.0c-cil 4.6.2.7+dfsg-1ubuntu1
libmono-custommarshalers4.0-cil 4.6.2.7+dfsg-1ubuntu1
libmono-data-tds4.0-cil 4.6.2.7+dfsg-1ubuntu1
libmono-db2-1.0-cil 4.6.2.7+dfsg-1ubuntu1
libmono-debugger-soft4.0a-cil 4.6.2.7+dfsg-1ubuntu1
libmono-http4.0-cil 4.6.2.7+dfsg-1ubuntu1
libmono-i18n-cjk4.0-cil 4.6.2.7+dfsg-1ubuntu1
libmono-i18n-mideast4.0-cil 4.6.2.7+dfsg-1ubuntu1
libmono-i18n-other4.0-cil 4.6.2.7+dfsg-1ubuntu1
libmono-i18n-rare4.0-cil 4.6.2.7+dfsg-1ubuntu1
libmono-i18n-west4.0-cil 4.6.2.7+dfsg-1ubuntu1
libmono-i18n4.0-all 4.6.2.7+dfsg-1ubuntu1
libmono-i18n4.0-cil 4.6.2.7+dfsg-1ubuntu1
libmono-ldap4.0-cil 4.6.2.7+dfsg-1ubuntu1
libmono-management4.0-cil 4.6.2.7+dfsg-1ubuntu1
libmono-messaging-rabbitmq4.0-cil 4.6.2.7+dfsg-1ubuntu1
libmono-messaging4.0-cil 4.6.2.7+dfsg-1ubuntu1
libmono-microsoft-build-engine4.0-cil 4.6.2.7+dfsg-1ubuntu1
libmono-microsoft-build-framework4.0-cil 4.6.2.7+dfsg-1ubuntu1
libmono-microsoft-build-tasks-v4.0-4.0-cil 4.6.2.7+dfsg-1ubuntu1
libmono-microsoft-build-utilities-v4.0-4.0-cil 4.6.2.7+dfsg-1ubuntu1
libmono-microsoft-build4.0-cil 4.6.2.7+dfsg-1ubuntu1
libmono-microsoft-csharp4.0-cil 4.6.2.7+dfsg-1ubuntu1
libmono-microsoft-visualc10.0-cil 4.6.2.7+dfsg-1ubuntu1
libmono-microsoft-web-infrastructure1.0-cil 4.6.2.7+dfsg-1ubuntu1
libmono-oracle4.0-cil 4.6.2.7+dfsg-1ubuntu1
libmono-parallel4.0-cil 4.6.2.7+dfsg-1ubuntu1
libmono-peapi4.0a-cil 4.6.2.7+dfsg-1ubuntu1
libmono-posix4.0-cil 4.6.2.7+dfsg-1ubuntu1
libmono-profiler 4.6.2.7+dfsg-1ubuntu1
libmono-rabbitmq4.0-cil 4.6.2.7+dfsg-1ubuntu1
libmono-relaxng4.0-cil 4.6.2.7+dfsg-1ubuntu1
libmono-security4.0-cil 4.6.2.7+dfsg-1ubuntu1
libmono-sharpzip4.84-cil 4.6.2.7+dfsg-1ubuntu1
libmono-simd4.0-cil 4.6.2.7+dfsg-1ubuntu1
libmono-smdiagnostics0.0-cil 4.6.2.7+dfsg-1ubuntu1
libmono-sqlite4.0-cil 4.6.2.7+dfsg-1ubuntu1
libmono-system-componentmodel-composition4.0-cil 4.6.2.7+dfsg-1ubuntu1
libmono-system-componentmodel-dataannotations4.0-cil 4.6.2.7+dfsg-1ubuntu1
libmono-system-configuration-install4.0-cil 4.6.2.7+dfsg-1ubuntu1
libmono-system-configuration4.0-cil 4.6.2.7+dfsg-1ubuntu1
libmono-system-core4.0-cil 4.6.2.7+dfsg-1ubuntu1
libmono-system-data-datasetextensions4.0-cil 4.6.2.7+dfsg-1ubuntu1
libmono-system-data-entity4.0-cil 4.6.2.7+dfsg-1ubuntu1
libmono-system-data-linq4.0-cil 4.6.2.7+dfsg-1ubuntu1
libmono-system-data-services-client4.0-cil 4.6.2.7+dfsg-1ubuntu1
libmono-system-data-services4.0-cil 4.6.2.7+dfsg-1ubuntu1
libmono-system-data4.0-cil 4.6.2.7+dfsg-1ubuntu1
libmono-system-deployment4.0-cil 4.6.2.7+dfsg-1ubuntu1
libmono-system-design4.0-cil 4.6.2.7+dfsg-1ubuntu1
libmono-system-drawing-design4.0-cil 4.6.2.7+dfsg-1ubuntu1
libmono-system-drawing4.0-cil 4.6.2.7+dfsg-1ubuntu1
libmono-system-dynamic4.0-cil 4.6.2.7+dfsg-1ubuntu1
libmono-system-enterpriseservices4.0-cil 4.6.2.7+dfsg-1ubuntu1
libmono-system-identitymodel-selectors4.0-cil 4.6.2.7+dfsg-1ubuntu1
libmono-system-identitymodel4.0-cil 4.6.2.7+dfsg-1ubuntu1
libmono-system-io-compression-filesystem4.0-cil 4.6.2.7+dfsg-1ubuntu1
libmono-system-io-compression4.0-cil 4.6.2.7+dfsg-1ubuntu1
libmono-system-json-microsoft4.0-cil 4.6.2.7+dfsg-1ubuntu1
libmono-system-json4.0-cil 4.6.2.7+dfsg-1ubuntu1
libmono-system-ldap-protocols4.0-cil 4.6.2.7+dfsg-1ubuntu1
libmono-system-ldap4.0-cil 4.6.2.7+dfsg-1ubuntu1
libmono-system-management4.0-cil 4.6.2.7+dfsg-1ubuntu1
libmono-system-messaging4.0-cil 4.6.2.7+dfsg-1ubuntu1
libmono-system-net-http-formatting4.0-cil 4.6.2.7+dfsg-1ubuntu1
libmono-system-net-http-webrequest4.0-cil 4.6.2.7+dfsg-1ubuntu1
libmono-system-net-http4.0-cil 4.6.2.7+dfsg-1ubuntu1
libmono-system-net4.0-cil 4.6.2.7+dfsg-1ubuntu1
libmono-system-numerics-vectors4.0-cil 4.6.2.7+dfsg-1ubuntu1
libmono-system-numerics4.0-cil 4.6.2.7+dfsg-1ubuntu1
libmono-system-reactive-core2.2-cil 4.6.2.7+dfsg-1ubuntu1
libmono-system-reactive-debugger2.2-cil 4.6.2.7+dfsg-1ubuntu1
libmono-system-reactive-experimental2.2-cil 4.6.2.7+dfsg-1ubuntu1
libmono-system-reactive-interfaces2.2-cil 4.6.2.7+dfsg-1ubuntu1
libmono-system-reactive-linq2.2-cil 4.6.2.7+dfsg-1ubuntu1
libmono-system-reactive-observable-aliases0.0-cil 4.6.2.7+dfsg-1ubuntu1
libmono-system-reactive-platformservices2.2-cil 4.6.2.7+dfsg-1ubuntu1
libmono-system-reactive-providers2.2-cil 4.6.2.7+dfsg-1ubuntu1
libmono-system-reactive-runtime-remoting2.2-cil 4.6.2.7+dfsg-1ubuntu1
libmono-system-reactive-windows-forms2.2-cil 4.6.2.7+dfsg-1ubuntu1
libmono-system-reactive-windows-threading2.2-cil 4.6.2.7+dfsg-1ubuntu1
libmono-system-reflection-context4.0-cil 4.6.2.7+dfsg-1ubuntu1
libmono-system-runtime-caching4.0-cil 4.6.2.7+dfsg-1ubuntu1
libmono-system-runtime-durableinstancing4.0-cil 4.6.2.7+dfsg-1ubuntu1
libmono-system-runtime-interopservices-runtimeinformation4.0-cil 4.6.2.7+dfsg-1ubuntu1
libmono-system-runtime-serialization-formatters-soap4.0-cil 4.6.2.7+dfsg-1ubuntu1
libmono-system-runtime-serialization4.0-cil 4.6.2.7+dfsg-1ubuntu1
libmono-system-runtime4.0-cil 4.6.2.7+dfsg-1ubuntu1
libmono-system-security4.0-cil 4.6.2.7+dfsg-1ubuntu1
libmono-system-servicemodel-activation4.0-cil 4.6.2.7+dfsg-1ubuntu1
libmono-system-servicemodel-discovery4.0-cil 4.6.2.7+dfsg-1ubuntu1
libmono-system-servicemodel-internals0.0-cil 4.6.2.7+dfsg-1ubuntu1
libmono-system-servicemodel-routing4.0-cil 4.6.2.7+dfsg-1ubuntu1
libmono-system-servicemodel-web4.0-cil 4.6.2.7+dfsg-1ubuntu1
libmono-system-servicemodel4.0a-cil 4.6.2.7+dfsg-1ubuntu1
libmono-system-serviceprocess4.0-cil 4.6.2.7+dfsg-1ubuntu1
libmono-system-threading-tasks-dataflow4.0-cil 4.6.2.7+dfsg-1ubuntu1
libmono-system-transactions4.0-cil 4.6.2.7+dfsg-1ubuntu1
libmono-system-web-abstractions4.0-cil 4.6.2.7+dfsg-1ubuntu1
libmono-system-web-applicationservices4.0-cil 4.6.2.7+dfsg-1ubuntu1
libmono-system-web-dynamicdata4.0-cil 4.6.2.7+dfsg-1ubuntu1
libmono-system-web-extensions-design4.0-cil 4.6.2.7+dfsg-1ubuntu1
libmono-system-web-extensions4.0-cil 4.6.2.7+dfsg-1ubuntu1
libmono-system-web-http-selfhost4.0-cil 4.6.2.7+dfsg-1ubuntu1
libmono-system-web-http-webhost4.0-cil 4.6.2.7+dfsg-1ubuntu1
libmono-system-web-http4.0-cil 4.6.2.7+dfsg-1ubuntu1
libmono-system-web-mobile4.0-cil 4.6.2.7+dfsg-1ubuntu1
libmono-system-web-mvc3.0-cil 4.6.2.7+dfsg-1ubuntu1
libmono-system-web-razor2.0-cil 4.6.2.7+dfsg-1ubuntu1
libmono-system-web-regularexpressions4.0-cil 4.6.2.7+dfsg-1ubuntu1
libmono-system-web-routing4.0-cil 4.6.2.7+dfsg-1ubuntu1
libmono-system-web-services4.0-cil 4.6.2.7+dfsg-1ubuntu1
libmono-system-web-webpages-deployment2.0-cil 4.6.2.7+dfsg-1ubuntu1
libmono-system-web-webpages-razor2.0-cil 4.6.2.7+dfsg-1ubuntu1
libmono-system-web-webpages2.0-cil 4.6.2.7+dfsg-1ubuntu1
libmono-system-web4.0-cil 4.6.2.7+dfsg-1ubuntu1
libmono-system-windows-forms-datavisualization4.0a-cil 4.6.2.7+dfsg-1ubuntu1
libmono-system-windows-forms4.0-cil 4.6.2.7+dfsg-1ubuntu1
libmono-system-windows4.0-cil 4.6.2.7+dfsg-1ubuntu1
libmono-system-workflow-activities4.0-cil 4.6.2.7+dfsg-1ubuntu1
libmono-system-workflow-componentmodel4.0-cil 4.6.2.7+dfsg-1ubuntu1
libmono-system-workflow-runtime4.0-cil 4.6.2.7+dfsg-1ubuntu1
libmono-system-xaml4.0-cil 4.6.2.7+dfsg-1ubuntu1
libmono-system-xml-linq4.0-cil 4.6.2.7+dfsg-1ubuntu1
libmono-system-xml-serialization4.0-cil 4.6.2.7+dfsg-1ubuntu1
libmono-system-xml4.0-cil 4.6.2.7+dfsg-1ubuntu1
libmono-system4.0-cil 4.6.2.7+dfsg-1ubuntu1
libmono-tasklets4.0-cil 4.6.2.7+dfsg-1ubuntu1
libmono-webbrowser4.0-cil 4.6.2.7+dfsg-1ubuntu1
libmono-webmatrix-data4.0-cil 4.6.2.7+dfsg-1ubuntu1
libmono-windowsbase4.0-cil 4.6.2.7+dfsg-1ubuntu1
libmono-xbuild-tasks4.0-cil 4.6.2.7+dfsg-1ubuntu1
libmonoboehm-2.0-1 4.6.2.7+dfsg-1ubuntu1
libmonosgen-2.0-1 4.6.2.7+dfsg-1ubuntu1
libmonosgen-2.0-dev 4.6.2.7+dfsg-1ubuntu1
libmoo-perl 2.003004-1
libmoox-handlesvia-perl 0.001008-3
libmoox-late-perl 0.015-3
 
 
 
 
 
 
 
 
 
 
 
 
 
 
 
 
libmtp-common 1.1.13-1
libmtp-runtime 1.1.13-1
 
 
 
 
libnamespace-clean-perl 0.27-1
libnatpmp1 20150609-2
 
 
 
 
 
 
 
 
 
libnet-dbus-perl 1.1.0-4build2
libnet-dns-perl 1.10-2
libnet-domain-tld-perl 1.75-1
libnet-http-perl 6.17-1
libnet-idn-encode-perl 2.400-1build1
libnet-ip-perl 1.26-1
libnet-ldap-perl 1:0.6500+dfsg-1
libnet-libidn-perl 0.12.ds-2build4
libnet-smtp-ssl-perl 1.04-1
libnet-snmp-perl 6.0.1-3
libnet-ssleay-perl 1.84-1ubuntu0.2
 
libnetaddr-ip-perl 4.079+dfsg-1build2
 
 
 
libnetpbm10 2:10.0-15.3build1
 
 
 
 
 
libnewtonsoft-json5.0-cil 6.0.8+dfsg-1
 
 
 
 
 
 
 
 
 
 
 
 
 
 
libnotify-bin 0.7.7-3
 
libnotmuch5 0.26-1ubuntu3
 
 
 
 
 
 
libntfs-3g88 1:2017.3.23-2ubuntu0.18.04.2
libntfs-3g883 1:2017.3.23AR.3-3
 
libntrack-qt4-1 016-1.3
libntrack0 016-1.3
 
 
libnumber-compare-perl 0.03-1
libnumber-range-perl 0.12-1
libnunit-cil-dev 2.6.4+dfsg-1
libnunit-console-runner2.6.3-cil 2.6.4+dfsg-1
libnunit-core-interfaces2.6.3-cil 2.6.4+dfsg-1
libnunit-core2.6.3-cil 2.6.4+dfsg-1
libnunit-framework2.6.3-cil 2.6.4+dfsg-1
libnunit-mocks2.6.3-cil 2.6.4+dfsg-1
libnunit-util2.6.3-cil 2.6.4+dfsg-1
libnvpair1linux 0.7.5-1ubuntu16.9
liboath0 2.6.1-1
 
 
 
 
 
 
 
libopenal-data 1:1.18.2-2
 
 
 
 
 
 
 
 
 
 
 
 
 
libopusfile0 0.9+20170913-1build1
 
 
 
 
libosp5 1.5.2-13ubuntu2
libostyle1c2 1.4devel1-21.3
 
 
 
 
libpackage-stash-perl 0.37-1
libpackage-stash-xs-perl 0.28-3build2
 
libpam-alreadyloggedin 0.3-6
libpam-barada 0.5-3.1build9
 
libpam-dynalogin 1.0.0-3ubuntu4
libpam-encfs 0.1.4.4-8
libpam-fscrypt 0.2.2-0ubuntu2.1
 
libpam-google-authenticator 20170702-1
 
libpam-modules-bin 1.1.8-3.6ubuntu2.18.04.1
libpam-mount 2.16-3ubuntu0.1
libpam-oath 2.6.1-1
libpam-otpw 1.5-1
 
libpam-pkcs11 0.6.9-2build2
 
libpam-radius-auth 1.3.17-0ubuntu5.18.04.1
libpam-runtime 1.3.1-5
libpam-ssh 2.1+ds1-2
 
libpam-sshauth 0.4.1-2
 
libpam-tmpdir 0.09build1
libpam-u2f 1.0.8-1~ppa1~bionic1
libpam-yubico 2.26-1~ppa1~bionic1
 
 
libpango-perl 1.227-2build1
 
 
 
 
 
libpaper-utils 1.1.24+nmu5ubuntu1
 
libparams-classify-perl 0.015-1
libparams-util-perl 1.07-3build3
libparams-validate-perl 1.29-1
libparse-debianchangelog-perl 1.2.0-12
 
 
libpath-iterator-rule-perl 1.009-1
libpath-tiny-perl 0.104-1
 
 
libpcaudio0 1.0-1
libpci-dev 1:3.5.2-1ubuntu1.1
 
 
 
 
 
 
 
 
libpcsc-perl 1.4.14-3
libpcsclite-dev 1.8.23-1
 
 
libpeas-common 1.22.0-2
 
libperlio-gzip-perl 0.19-1build3
 
 
 
 
 
 
 
 
 
libplasma3 4:4.14.38-0ubuntu3.1
 
 
 
libpng-tools 1.6.34-1ubuntu0.18.04.2
 
 
libpod-constants-perl 0.19-1
 
 
 
 
 
 
 
 
 
 
 
libpotrace0 1.14-2
 
 
 
 
 
libproxy-tools 0.4.15-1
 
 
 
 
 
 
 
 
 
 
libpwquality-common 1.4.0-2
 
 
 
 
 
 
 
 
 
 
 
 
 
 
 
 
 
 
 
 
 
libqmi-proxy 1.22.0-1.2~ubuntu18.04.1
 
 
 
 
 
 
 
 
 
 
 
 
 
 
 
 
 
 
 
 
 
 
 
 
 
 
 
 
 
 
 
 
 
 
 
 
 
 
 
 
 
 
 
 
 
libradcli4 1.2.6-4
librados2 12.2.12-0ubuntu0.18.04.5
 
 
librbd1 12.2.12-0ubuntu0.18.04.5
 
 
 
 
 
libreadonly-perl 2.050-1
libref-util-perl 0.203-1
libref-util-xs-perl 0.116-1
libregexp-pattern-license-perl 3.0.31-3
libresid-builder0c2a 2.1.1-15ubuntu1
 
 
 
 
librole-tiny-perl 2.000006-1
 
 
 
 
librtpkcs11ecp 1.9.14.0-1
 
 
 
 
libsane-common 1.0.27-1~experimental3ubuntu2.2
 
 
 
 
 
 
 
 
 
 
 
 
 
 
 
libsecret-common 0.20.2-1
 
 
libsemanage-common 3.0-1
 
 
 
 
libsgmls-perl 1.03ii-36
libsgutils2-2 1.42-2ubuntu1.18.04.2
 
 
 
 
 
libsidplay2 2.1.1-15ubuntu1
 
 
 
 
 
 
 
 
 
libsmbios-c2 2.4.1-1
 
 
 
 
 
 
libsnmp-base 5.7.3+dfsg-1.8ubuntu3.3
libsnmp-session-perl 1.14~git20130523.186a005-2
 
libsocket6-perl 0.27-1build2
 
libsolid4 4:4.14.38-0ubuntu3.1
 
libsort-key-perl 1.33-2
libsort-versions-perl 1.62-1
 
 
 
 
 
 
 
 
 
 
 
 
 
 
 
 
 
 
 
 
 
 
 
libstreamanalyzer0v5 0.7.8-2.2
libstreams0v5 0.7.8-2.2
libstrictures-perl 2.000003-1
libstring-copyright-perl 0.003005-1
libstring-escape-perl 2010.002-2
libstrongswan 5.6.2-1ubuntu2.5
libstrongswan-standard-plugins 5.6.2-1ubuntu2.5
libsub-exporter-perl 0.987-1
libsub-exporter-progressive-perl 0.001013-1
libsub-identify-perl 0.14-1
libsub-install-perl 0.928-1
libsub-name-perl 0.21-1build1
libsub-quote-perl 2.005000-1
 
 
 
 
libsys-hostname-long-perl 1.5-1
 
 
 
 
 
 
 
 
 
 
 
 
libterm-readkey-perl 2.37-1build1
 
 
 
libtext-charwidth-perl 0.04-7.1
libtext-csv-perl 1.95-1
libtext-csv-xs-perl 1.34-1
libtext-glob-perl 0.10-1
libtext-iconv-perl 1.7-5build6
libtext-levenshtein-perl 0.13-1
libtext-template-perl 1.47-1
libtext-unidecode-perl 1.30-1
libtext-wrapi18n-perl 0.06-9
 
libthai-data 0.1.28-3
 
 
 
libthreadweaver4 4:4.14.38-0ubuntu3.1
libtie-ixhash-perl 1.23-2
 
 
libtimedate-perl 2.3000-2
 
 
 
 
 
 
 
 
 
 
 
libtool 2.4.6-2
libtotem-plparser-common 3.26.0-1ubuntu2
 
 
libtry-tiny-perl 0.30-1
 
 
libtype-tiny-perl 1.002001-1
libtype-tiny-xs-perl 0.012-2
libtypes-serialiser-perl 1.0-1
libu2f-host0 1.1.10-1~ppa1~bionic1
libu2f-server0 1.1.0-1build1
libu2f-udev 1.1.10-1~ppa1~bionic1
 
 
 
 
 
 
 
 
libunicode-utf8-perl 0.60-1build4
 
 
 
libunity-scopes-json-def-desktop 7.1.4+18.04.20180209.1-0ubuntu2
 
 
 
 
 
liburi-perl 1.73-1
 
 
 
 
 
libusb-1.0-doc 2:1.0.21-2
 
 
 
 
 
libuutil1linux 0.7.5-1ubuntu16.9
 
 
 
 
 
 
 
 
 
libvalidate-yubikey-perl 0.03-1
libvariable-magic-perl 0.62-1
 
libvirt-daemon 4.0.0-1ubuntu8.17
libvirt-daemon-driver-storage-rbd 4.0.0-1ubuntu8.17
 
 
 
 
 
 
 
 
 
 
libvolume-key1 0.3.9-4
 
 
 
 
 
libvorbisidec1 1.0.2+svn18153-1+deb9u1build0.18.04.1
 
 
libvte-2.91-common 0.52.2-1ubuntu1~18.04.2
 
libwacom-bin 0.29-1
libwacom-common 0.29-1
 
 
 
 
 
 
 
 
 
 
 
 
 
 
 
libwhoopsie-preferences0 0.19
 
libwildmidi-config 0.4.2-1
 
 
 
 
 
 
 
libwmf0.2-7-gtk 0.2.8.4-12
 
libwnck-3-common 3.24.1-2
 
 
 
libwww-perl 6.31-1ubuntu0.1
libwww-robotrules-perl 6.01-1
 
 
libx11-data 2:1.6.9-2
 
libx11-doc 2:1.6.9-2
libx11-protocol-perl 0.56-7
 
 
 
 
 
 
 
 
 
 
 
 
 
 
 
 
 
 
 
 
 
 
 
 
 
 
 
 
 
 
 
 
 
 
 
 
 
 
 
 
 
 
 
 
 
 
 
 
 
 
 
 
 
 
 
 
 
 
 
 
 
 
 
 
 
libxml-libxml-perl 2.0128+dfsg-5
libxml-namespacesupport-perl 1.12-1
libxml-parser-perl 2.44-2build3
libxml-sax-base-perl 1.09-1
libxml-sax-expat-perl 0.40-2
libxml-sax-perl 0.99+dfsg-2ubuntu1
libxml-simple-perl 2.24-1
libxml-twig-perl 1:3.50-1
libxml-xpathengine-perl 0.14-1
 
 
libxml2-utils 2.9.4+dfsg1-6.1ubuntu1.3
 
 
 
 
 
 
 
 
 
 
 
 
 
 
 
 
 
 
 
 
 
 
 
 
 
 
 
 
 
 
libyaml-libyaml-perl 0.69+repack-1
 
 
libykneomgr0 0.1.8-2.2
 
libykpiv1 2.0.0-2~ppa1~bionic1
libyubihsm-dev 2.0.1-1
libyubihsm-http1 2.0.1-1
libyubihsm-usb1 2.0.1-1
libyubihsm1 2.0.1-1
libyubikey0 1.13-2
 
 
 
libzfs2linux 0.7.5-1ubuntu16.9
 
 
libzpool2linux 0.7.5-1ubuntu16.9
 
 
 
 
 
libzvbi-common 0.2.35-13
 
 
 
licensecheck 3.0.31-2
light-themes 16.10+18.04.20181005-0ubuntu1
links 2.14-5build1
lintian 2.5.81ubuntu1
linux-base 4.6
linux-firmware 1.173.18
linux-generic-hwe-18.04 5.3.0.53.110
linux-headers-5.0.0-37 5.0.0-37.40~18.04.1
linux-headers-5.0.0-37-generic 5.0.0-37.40~18.04.1
linux-headers-5.3.0-51 5.3.0-51.44~18.04.2
linux-headers-5.3.0-51-generic 5.3.0-51.44~18.04.2
linux-headers-5.3.0-53 5.3.0-53.47~18.04.1
linux-headers-5.3.0-53-generic 5.3.0-53.47~18.04.1
linux-headers-generic-hwe-18.04 5.3.0.53.110
linux-image-4.18.0-15-generic 4.18.0-15.16~18.04.1
linux-image-5.0.0-23-generic 5.0.0-23.24~18.04.1
linux-image-5.0.0-25-generic 5.0.0-25.26~18.04.1
linux-image-5.0.0-31-generic 5.0.0-31.33~18.04.1
linux-image-5.0.0-32-generic 5.0.0-32.34~18.04.2
linux-image-5.0.0-36-generic 5.0.0-36.39~18.04.1
linux-image-5.0.0-37-generic 5.0.0-37.40~18.04.1
linux-image-5.3.0-26-generic 5.3.0-26.28~18.04.1
linux-image-5.3.0-40-generic 5.3.0-40.32~18.04.1
linux-image-5.3.0-42-generic 5.3.0-42.34~18.04.1
linux-image-5.3.0-45-generic 5.3.0-45.37~18.04.1
linux-image-5.3.0-46-generic 5.3.0-46.38~18.04.1
linux-image-5.3.0-51-generic 5.3.0-51.44~18.04.2
linux-image-5.3.0-53-generic 5.3.0-53.47~18.04.1
linux-image-generic-hwe-18.04 5.3.0.53.110
 
linux-modules-4.18.0-15-generic 4.18.0-15.16~18.04.1
linux-modules-5.0.0-23-generic 5.0.0-23.24~18.04.1
linux-modules-5.0.0-25-generic 5.0.0-25.26~18.04.1
linux-modules-5.0.0-31-generic 5.0.0-31.33~18.04.1
linux-modules-5.0.0-32-generic 5.0.0-32.34~18.04.2
linux-modules-5.0.0-36-generic 5.0.0-36.39~18.04.1
linux-modules-5.0.0-37-generic 5.0.0-37.40~18.04.1
linux-modules-5.3.0-26-generic 5.3.0-26.28~18.04.1
linux-modules-5.3.0-40-generic 5.3.0-40.32~18.04.1
linux-modules-5.3.0-42-generic 5.3.0-42.34~18.04.1
linux-modules-5.3.0-45-generic 5.3.0-45.37~18.04.1
linux-modules-5.3.0-46-generic 5.3.0-46.38~18.04.1
linux-modules-5.3.0-51-generic 5.3.0-51.44~18.04.2
linux-modules-5.3.0-53-generic 5.3.0-53.47~18.04.1
linux-modules-extra-4.18.0-15-generic 4.18.0-15.16~18.04.1
linux-modules-extra-5.0.0-23-generic 5.0.0-23.24~18.04.1
linux-modules-extra-5.0.0-25-generic 5.0.0-25.26~18.04.1
linux-modules-extra-5.0.0-31-generic 5.0.0-31.33~18.04.1
linux-modules-extra-5.0.0-32-generic 5.0.0-32.34~18.04.2
linux-modules-extra-5.0.0-36-generic 5.0.0-36.39~18.04.1
linux-modules-extra-5.0.0-37-generic 5.0.0-37.40~18.04.1
linux-modules-extra-5.3.0-26-generic 5.3.0-26.28~18.04.1
linux-modules-extra-5.3.0-40-generic 5.3.0-40.32~18.04.1
linux-modules-extra-5.3.0-42-generic 5.3.0-42.34~18.04.1
linux-modules-extra-5.3.0-45-generic 5.3.0-45.37~18.04.1
linux-modules-extra-5.3.0-46-generic 5.3.0-46.38~18.04.1
linux-modules-extra-5.3.0-51-generic 5.3.0-51.44~18.04.2
linux-modules-extra-5.3.0-53-generic 5.3.0-53.47~18.04.1
linux-sound-base 1.0.25+dfsg-0ubuntu5
lirc 0.10.0-2
lm-sensors 1:3.4.0-4
locales 2.30-4
login 1:4.5-1ubuntu2
logrotate 3.11.0-0.1ubuntu1
logsave 1.45.6-1
lp-solve 5.5.0.15-4build1
lsb-base 11.1.0
lsb-release 9.20170808ubuntu1
lshw 02.18-0.1ubuntu6.18.04.1
lsof 4.89+dfsg-0.1
ltrace 0.7.3-6ubuntu1
 
 
lvm2 2.02.176-4.1ubuntu3.18.04.3
m4 1.4.18-1
mailutils 1:3.4-1
mailutils-common 1:3.4-1
make 4.1-9.1ubuntu1
makedumpfile 1:1.6.5-1ubuntu1~18.04.4
man-db 2.8.3-2ubuntu0.1
manpages 4.15-1
manpages-dev 5.06-1
mariadb-client-10.1 1:10.1.44-0ubuntu0.18.04.1
mariadb-common 1:10.1.44-0ubuntu0.18.04.1
mawk 1.3.3-17ubuntu3
mb2md 3.20-8
mc 3:4.8.19-1
mc-data 3:4.8.19-1
mcrypt 2.6.8-1.3ubuntu2
media-player-info 23-1
meld 3.18.0-6
memtest86+ 5.01-3ubuntu2
menu 2.1.47ubuntu2.1
mesa-utils 8.4.0-1
 
 
metasploit-framework 5.0.85-0kali1
mime-support 3.64
minidlna 1.2.1+dfsg-1
mlocate 0.26-2ubuntu3.1
mobile-broadband-provider-info 20170903-1
modemmanager 1.10.0-1~ubuntu18.04.2
mongodb-org-server 3.4.24
mono-4.0-gac 4.6.2.7+dfsg-1ubuntu1
mono-4.0-service 4.6.2.7+dfsg-1ubuntu1
mono-complete 4.6.2.7+dfsg-1ubuntu1
mono-csharp-shell 4.6.2.7+dfsg-1ubuntu1
mono-devel 4.6.2.7+dfsg-1ubuntu1
mono-dmcs 4.6.2.7+dfsg-1ubuntu1
mono-gac 4.6.2.7+dfsg-1ubuntu1
mono-jay 4.6.2.7+dfsg-1ubuntu1
mono-mcs 4.6.2.7+dfsg-1ubuntu1
mono-runtime 4.6.2.7+dfsg-1ubuntu1
mono-runtime-common 4.6.2.7+dfsg-1ubuntu1
mono-runtime-sgen 4.6.2.7+dfsg-1ubuntu1
mono-utils 4.6.2.7+dfsg-1ubuntu1
mono-xbuild 4.6.2.7+dfsg-1ubuntu1
mono-xsp4 4.2-2.1
mono-xsp4-base 4.2-2.1
monodoc-base 4.6.2.7+dfsg-1ubuntu1
monodoc-http 4.2-2.2
monodoc-manual 4.6.2.7+dfsg-1ubuntu1
mosquitto 1.4.15-2ubuntu0.18.04.3
mosquitto-auth-plugin 0.0.7-2.1ubuntu3
mosquitto-clients 1.4.15-2ubuntu0.18.04.3
mount 2.31.1-0.4ubuntu3.6
mousetweaks 3.12.0-4
mplayer 2:1.3.0-7build2
mplayer-gui 2:1.3.0-7build2
mplayer-skins 3.2
mpv 0.27.2-1ubuntu1
mscompress 0.4-3build1
msr-tools 1.3-2build1
mtools 4.0.18-2ubuntu1
mtr-tiny 0.92-1
multiarch-support 2.27-3ubuntu1
multitail 6.4.2-3
mutt 1.9.4-3ubuntu0.1
mutter 3.28.4-0ubuntu18.04.2
mutter-common 3.28.4-0ubuntu18.04.2
mysql-client 5.7.30-0ubuntu0.18.04.1
mysql-client-5.7 5.7.30-0ubuntu0.18.04.1
mysql-client-core-5.7 5.7.30-0ubuntu0.18.04.1
mysql-common 5.8+1.0.4
mysql-server 5.7.30-0ubuntu0.18.04.1
mysql-server-5.7 5.7.30-0ubuntu0.18.04.1
mysql-server-core-5.7 5.7.30-0ubuntu0.18.04.1
nano 2.9.3-2
nasm 2.13.02-0.1
nast 0.2.0-7
nautilus 1:3.26.4-0~ubuntu18.04.5
nautilus-data 1:3.26.4-0~ubuntu18.04.5
nautilus-extension-gnome-terminal 3.28.2-1ubuntu1~18.04.1
nautilus-sendto 3.8.6-2
nautilus-share 0.7.3-2ubuntu3
ncrack 0.6-1build1
ncurses-base 6.1-1ubuntu1.18.04
ncurses-bin 6.1-1ubuntu1.18.04
ncurses-term 6.1-1ubuntu1.18.04
neomutt 20171215+dfsg.1-1
net-tools 1.60+git20161116.90da8a0-1ubuntu1
netbase 6.1
netcat-openbsd 1.187-1ubuntu0.1
netdiag 1.2-1
nethogs 0.8.5-2
netmrg 0.20-7.2
netpbm 2:10.0-15.3build1
netplan.io 0.99-0ubuntu3~18.04.2
netscript-ipfilter 5.5.3
network-manager 1.10.6-2ubuntu1.4
network-manager-config-connectivity-ubuntu 1.10.6-2ubuntu1.4
network-manager-gnome 1.8.10-2ubuntu3
network-manager-openvpn 1.8.2-1
network-manager-pptp 1.2.6-1
network-manager-pptp-gnome 1.2.6-1
networkd-dispatcher 1.7-0ubuntu3.3
nfs-common 1:1.3.4-2.1ubuntu5.2
nfs-kernel-server 1:1.3.4-2.1ubuntu5.2
nfs4-acl-tools 0.3.3-3
nftables 0.8.2-1
nload 0.7.4-2
nmap 7.60-1ubuntu5
nmon 16g+debian-3
notification-daemon 3.20.0-3
nplan 0.99-0ubuntu3~18.04.2
ntfs-3g 1:2017.3.23-2ubuntu0.18.04.2
ntp 1:4.2.8p10+dfsg-5ubuntu7.1
ntpdate 1:4.2.8p10+dfsg-5ubuntu7.1
ntrack-module-libnl-0 016-1.3
 
 
openjade 1.4devel1-21.3
 
 
 
 
 
openprinting-ppds 20180306-1
 
opensp 1.5.2-13ubuntu2
openssh-client 1:7.6p1-4ubuntu0.3
openssh-server 1:7.6p1-4ubuntu0.3
openssh-sftp-server 1:7.6p1-4ubuntu0.3
openssl 1.1.1-1ubuntu2.1~18.04.6
openvas 1:7.0.0-2
openvas-smb 1.0.5-1
openvpn 2.4.4-2ubuntu1.3
openvpn-configuration-generator 1.0.6
oracle-java11-installer-local 11.0.7-1~linuxuprising0
oracle-java11-set-default-local 11.0.7-1~linuxuprising0
orca 3.28.0-3ubuntu1
os-prober 1.74ubuntu1
ospd-openvas 1.0.0-3
otpw-bin 1.5-1
oxygen-icon-theme 5:5.44.0-0ubuntu1
p11-kit 0.23.9-2
 
p7zip 16.02+dfsg-6
packagekit 1.1.9-1ubuntu2.18.04.5
packagekit-tools 1.1.9-1ubuntu2.18.04.5
pamu2fcfg 1.0.8-1~ppa1~bionic1
paperkey 1.5-3
parted 3.2-20ubuntu0.2
passwd 1:4.5-1ubuntu2
patch 2.7.6-2ubuntu1.1
patchutils 0.3.4-2
pax 1:20171021-2
pciutils 1:3.5.2-1ubuntu1.1
pcmciautils 018-8build1
pcsc-tools 1.5.2-2
pcscd 1.8.23-1
perl 5.26.1-6ubuntu0.3
perl-base 5.26.1-6ubuntu0.3
perl-modules-5.26 5.26.1-6ubuntu0.3
 
pflogsumm 1.1.5-3
phantomjs 2.1.1+dfsg-2
 
 
 
 
 
php 1:7.2+60ubuntu1
php-bcmath 1:7.2+60ubuntu1
php-bz2 1:7.2+60ubuntu1
php-cli 1:7.2+60ubuntu1
php-common 1:60ubuntu1
php-curl 1:7.2+60ubuntu1
php-db 1.9.2-2ubuntu1
php-gd 1:7.2+60ubuntu1
php-intl 1:7.2+60ubuntu1
php-mbstring 1:7.2+60ubuntu1
php-mdb2 2.5.0b5-2
php-mdb2-driver-mysql 1.5.0b4-2
php-mysql 1:7.2+60ubuntu1
php-pear 1:1.10.5+submodules+notgz-1ubuntu1.18.04.1
php-php-gettext 1.0.12-0.1
php-phpseclib 2.0.9-1
php-soap 1:7.2+60ubuntu1
php-tcpdf 6.2.13+dfsg-1ubuntu1
php-xml 1:7.2+60ubuntu1
php-xmlrpc 1:7.2+60ubuntu1
php-zip 1:7.2+60ubuntu1
php7.2 7.2.24-0ubuntu0.18.04.6
php7.2-bcmath 7.2.24-0ubuntu0.18.04.6
php7.2-bz2 7.2.24-0ubuntu0.18.04.6
php7.2-cli 7.2.24-0ubuntu0.18.04.6
php7.2-common 7.2.24-0ubuntu0.18.04.6
php7.2-curl 7.2.24-0ubuntu0.18.04.6
php7.2-gd 7.2.24-0ubuntu0.18.04.6
php7.2-intl 7.2.24-0ubuntu0.18.04.6
php7.2-json 7.2.24-0ubuntu0.18.04.6
php7.2-mbstring 7.2.24-0ubuntu0.18.04.6
php7.2-mysql 7.2.24-0ubuntu0.18.04.6
php7.2-opcache 7.2.24-0ubuntu0.18.04.6
php7.2-readline 7.2.24-0ubuntu0.18.04.6
php7.2-soap 7.2.24-0ubuntu0.18.04.6
php7.2-xml 7.2.24-0ubuntu0.18.04.6
php7.2-xmlrpc 7.2.24-0ubuntu0.18.04.6
php7.2-zip 7.2.24-0ubuntu0.18.04.6
phpmyadmin 4:4.6.6-5
pinentry-curses 1.1.0-1
pinentry-gnome3 1.1.0-1
pinentry-qt 1.1.0-1
pkg-config 0.29.1-0ubuntu2
plasma-scriptengine-javascript 4:17.08.3-0ubuntu1
plymouth 0.9.3-1ubuntu7.18.04.2
plymouth-label 0.9.3-1ubuntu7.18.04.2
plymouth-theme-ubuntu-logo 0.9.3-1ubuntu7.18.04.2
plymouth-theme-ubuntu-text 0.9.3-1ubuntu7.18.04.2
po-debconf 1.0.20
policykit-1 0.105-20ubuntu0.18.04.5
policykit-desktop-privileges 0.20ubuntu18.04.1
poppler-data 0.4.8-2
poppler-utils 0.62.0-2ubuntu2.10
popularity-contest 1.66ubuntu1
postfix 3.3.0-1ubuntu0.2
postgresql 10+190ubuntu0.1
postgresql-10 10.12-0ubuntu0.18.04.1
postgresql-client-10 10.12-0ubuntu0.18.04.1
postgresql-client-12 12.2-4
postgresql-client-common 214
postgresql-common 214
powermgmt-base 1.33
ppp 2.4.7-2+2ubuntu1.2
pppconfig 2.3.23
pppoeconf 1.21ubuntu1
pptp-linux 1.9.0+ds-2
preview-latex-style 11.91-1ubuntu1
printer-driver-brlaser 4-1
printer-driver-c2esp 27-4
printer-driver-foo2zjs 20170320dfsg0-4
printer-driver-foo2zjs-common 20171202dfsg0-4
printer-driver-gutenprint 5.2.13-2
printer-driver-hpcups 3.17.10+repack0-5
printer-driver-m2300w 0.51-13
printer-driver-min12xxw 0.0.9-10
printer-driver-pnm2ppa 1.13+nondbs-0ubuntu6
printer-driver-postscript-hp 3.17.10+repack0-5
printer-driver-ptouch 1.4.2-3
printer-driver-pxljr 1.4+repack0-5
printer-driver-sag-gdi 0.1-5
printer-driver-splix 2.0.0+svn315-6fakesync1
procmail 3.22-26
procps 2:3.3.12-3ubuntu1.2
proftpd-basic 1.3.5e-1build1
psmisc 23.1-1ubuntu0.1
publicsuffix 20180223.1310-1
pulseaudio 1:11.1-1ubuntu7.7
pulseaudio-module-bluetooth 1:11.1-1ubuntu7.7
pulseaudio-utils 1:11.1-1ubuntu7.7
putty 0.70-4
putty-tools 0.70-4
pwauth 2.3.11-0.2
pyroman 0.6.2-1.1
python 2.7.15~rc1-1
python-acme-doc 0.31.0-2~ubuntu18.04.1
python-alabaster 0.7.8-1
python-all 2.7.15~rc1-1
python-all-dev 2.7.15~rc1-1
python-apt-common 1.6.5ubuntu0.2
python-asn1crypto 0.24.0-1
python-babel 2.4.0+dfsg.1-2ubuntu1
python-babel-localedata 2.4.0+dfsg.1-2ubuntu1
python-bluez 0.22-1
 
python-certbot-doc 0.27.0-1~ubuntu18.04.1
python-certifi 2018.1.18-2
python-cffi-backend 1.11.5-1
python-chardet 3.0.4-1
python-cheetah 2.4.4-4
python-crypto 2.6.1-8ubuntu2
python-cryptodome 3.5.1-2~bionic
python-cryptography 2.1.4-1ubuntu1.3
python-dbus 1.2.6-1
python-dev 2.7.15~rc1-1
python-dnspython 1.15.0-1
python-docutils 0.14+dfsg-3
python-enum34 1.1.6-2
python-fasteners 0.12.0-3
python-gflags 1.5.1-5
python-gi 3.26.1-2ubuntu1
python-gi-cairo 3.26.1-2ubuntu1
python-gnupg 0.4.1-1ubuntu1.18.04.1
python-gobject-2 2.28.6-12ubuntu3
python-googleapi 1.5.5-1
python-gtk2 2.24.0-5.1ubuntu2
python-httplib2 0.9.2+dfsg-1ubuntu0.1
python-idna 2.6-1
python-imagesize 0.7.1-1
python-ipaddress 1.0.17-1
python-jinja2 2.10-1ubuntu0.18.04.1
python-keyring 10.6.0-1
python-keyrings.alt 3.0-1
 
python-libvirt 4.0.0-1
python-markupsafe 1.0-1build1
python-matplotlib-data 2.1.1-2ubuntu3
python-minimal 2.7.15~rc1-1
python-monotonic 1.1-2
python-nautilus 1.1-6
python-oauth2client 4.1.2-3
python-olefile 0.45.1-1
python-openssl 17.5.0-1ubuntu1
 
python-pip 9.0.1-2.3~ubuntu1.18.04.1
python-pip-whl 9.0.1-2.3~ubuntu1.18.04.1
python-pkg-resources 39.0.1-2
python-psutil 5.4.2-1ubuntu0.1
python-pyasn1 0.4.2-3
python-pyasn1-modules 0.2.1-0.2
python-pygments 2.2.0+dfsg-1
python-pygments-doc 2.2.0+dfsg-1
python-pyhsm 1.2.0-1
python-pyicu 1.9.8-0ubuntu1
python-pyside.qtcore 1.2.2+source1-3
python-pyside.qtgui 1.2.2+source1-3
python-pyside.qtnetwork 1.2.2+source1-3
python-requests 2.18.4-2ubuntu0.1
python-roman 2.0.0-3
python-rsa 3.4.2-1
python-samba 2:4.7.6+dfsg~ubuntu-0ubuntu2.16
python-secretstorage 2.3.1-2
python-serial 3.4-2
python-setuptools 39.0.1-2
python-simplejson 3.13.2-1
python-six 1.11.0-2
python-sphinx 1.6.7-1ubuntu1
python-sphinx-rtd-theme 0.2.4-1
python-sqlalchemy 1.1.11+ds1-1ubuntu1
python-sqlalchemy-ext 1.1.11+ds1-1ubuntu1
python-talloc 2.1.10-2ubuntu1
python-tdb 1.3.15-2
python-typing 3.6.2-1
python-tz 2018.3-2
python-uritemplate 0.6-1ubuntu1
python-urllib3 1.22-1ubuntu0.18.04.1
python-vm-builder 0.12.4+bzr494-0ubuntu1
python-wheel 0.30.0-0.2
python-xdg 0.25-4ubuntu1
python2 2.7.17-2
python2-dev 2.7.17-2
python2-minimal 2.7.17-2
python2.7 2.7.17-1~18.04ubuntu1
python2.7-dev 2.7.17-1~18.04ubuntu1
python2.7-minimal 2.7.17-1~18.04ubuntu1
python3 3.6.7-1~18.04
python3-acme 0.31.0-2~ubuntu18.04.1
python3-apparmor 2.12-4ubuntu5.1
python3-apport 2.20.9-0ubuntu7.15
python3-apt 1.6.5ubuntu0.2
python3-aptdaemon 1.1.1+bzr982-0ubuntu19.3
python3-aptdaemon.gtk3widgets 1.1.1+bzr982-0ubuntu19.3
python3-asn1crypto 0.24.0-1
python3-augeas 0.5.0-1
python3-bottle 0.12.13-1
python3-brlapi 5.5-4ubuntu2.0.1
python3-bs4 4.6.0-1
 
python3-certbot 0.27.0-1~ubuntu18.04.1
python3-certbot-apache 0.23.0-1
python3-certifi 2018.1.18-2
python3-cffi-backend 1.11.5-1
python3-chardet 3.0.4-1
python3-click 6.7-3
python3-colorama 0.3.7-1
python3-commandnotfound 18.04.5
python3-configargparse 0.11.0-1
python3-configobj 5.0.6-2
python3-crypto 2.6.1-8ubuntu2
python3-cryptography 2.1.4-1ubuntu1.3
python3-cups 1.9.73-2
python3-cupshelpers 1.5.11-1ubuntu2
python3-cycler 0.10.0-1
python3-dateutil 2.6.1-1
python3-dbus 1.2.6-1
python3-debconf 1.5.73
python3-debian 0.1.32
python3-defer 1.0.6-2build1
python3-defusedxml 0.5.0-1ubuntu1
python3-dev 3.6.7-1~18.04
python3-distro-info 0.18ubuntu0.18.04.1
python3-distupgrade 1:18.04.37
python3-distutils 3.6.9-1~18.04
python3-docker 2.5.1-1
python3-dockerpycreds 0.2.1-1
python3-dropbox 8.7.1-1
python3-ecdsa 0.13-2ubuntu0.18.04.1
python3-fido2 0.8.1~ppa1~bionic1
python3-future 0.15.2-4ubuntu2
 
python3-gi 3.26.1-2ubuntu1
python3-gi-cairo 3.26.1-2ubuntu1
python3-gpg 1.10.0-1ubuntu2
python3-gvm 1.0.0-1
python3-html5lib 0.999999999-1
python3-httplib2 0.9.2+dfsg-1ubuntu0.1
python3-idna 2.6-1
python3-influxdb 4.1.1-2
python3-josepy 1.1.0-1
python3-keyring 10.6.0-1
python3-keyrings.alt 3.0-1
python3-launchpadlib 1.10.6-1
python3-lazr.restfulclient 0.13.5-1
python3-lazr.uri 1.0.3-2build1
python3-lib2to3 3.6.9-1~18.04
python3-libapparmor 2.12-4ubuntu5.1
python3-louis 3.5.0-1ubuntu0.3
 
python3-macaroonbakery 1.1.3-1
python3-magcode-core 1.4.10-1
python3-magic 2:0.4.15-1
python3-mako 1.0.7+ds1-1
python3-markupsafe 1.0-1build1
python3-matplotlib 2.1.1-2ubuntu3
python3-minimal 3.6.7-1~18.04
python3-mock 2.0.0-3
python3-nacl 1.1.2-1build1
python3-netifaces 0.10.4-0.1build4
python3-numpy 1:1.13.3-2ubuntu1
python3-oauth 1.0.1-5
python3-olefile 0.45.1-1
python3-openssl 17.5.0-1ubuntu1
python3-ospd 2.0.0-1
python3-paramiko 2.0.0-1ubuntu1.2
python3-parsedatetime 2.4-2
python3-pbr 3.1.1-3ubuntu3
python3-pexpect 4.2.1-1
 
python3-pip 9.0.1-2.3~ubuntu1.18.04.1
python3-pkg-resources 39.0.1-2
python3-ply 3.11-1
python3-problem-report 2.20.9-0ubuntu7.15
python3-protobuf 3.0.0-9.1ubuntu1
python3-psutil 5.4.2-1ubuntu0.1
python3-ptyprocess 0.5.2-1
python3-pyaes 1.6.1-1
python3-pyasn1 0.4.2-3
python3-pyatspi 2.26.0+dfsg-1
python3-pycryptodome 3.4.7-1ubuntu1
python3-pyinotify 0.9.6-1
python3-pymacaroons 0.13.0-1
python3-pyparsing 2.2.0+dfsg1-2
python3-pyscard 1.9.6-2
python3-pysmi 0.2.2-1
python3-pysnmp4 4.4.3-1
python3-pystache 0.5.4-6
python3-pyxattr 0.6.0-2build2
python3-redis 3.3.11-2
 
python3-reportlab 3.4.0-3ubuntu0.1
 
python3-requests 2.18.4-2ubuntu0.1
python3-requests-toolbelt 0.8.0-1
python3-requests-unixsocket 0.1.5-3
python3-rfc3339 1.0-4
python3-secretstorage 2.3.1-2
python3-serial 3.4-2
python3-setuptools 39.0.1-2
python3-simplejson 3.13.2-1
python3-six 1.11.0-2
python3-software-properties 0.96.24.32.12
python3-speechd 0.8.8-1ubuntu1
python3-systemd 234-1build1
 
python3-tz 2018.3-2
python3-unidiff 0.5.4-1
python3-update-manager 1:18.04.11.12
python3-urllib3 1.22-1ubuntu0.18.04.1
python3-usb 1.0.0-1
python3-venv 3.6.7-1~18.04
python3-wadllib 1.3.2-3ubuntu0.18.04.1
python3-webencodings 0.5-2
python3-websocket 0.44.0-0ubuntu2
python3-wheel 0.30.0-0.2
python3-xdg 0.25-4ubuntu1
python3-xkit 0.5.0ubuntu2
python3-yaml 3.12-1build2
python3-yubikey-manager 3.1.1~ppa1~bionic1
python3-zope.component 4.3.0-1
python3-zope.event 4.2.0-1
python3-zope.hookable 4.0.4-4build4
python3-zope.interface 4.3.2-1build2
python3.6 3.6.9-1~18.04ubuntu1
python3.6-dev 3.6.9-1~18.04ubuntu1
python3.6-minimal 3.6.9-1~18.04ubuntu1
python3.6-venv 3.6.9-1~18.04ubuntu1
qdbus 4:4.8.7+dfsg-7ubuntu1
 
qemu-kvm 1:2.11+dfsg-1ubuntu7.26
qemu-system-common 1:2.11+dfsg-1ubuntu7.26
qemu-system-x86 1:2.11+dfsg-1ubuntu7.26
qemu-utils 1:2.11+dfsg-1ubuntu7.26
 
 
 
 
 
 
 
 
 
 
 
 
 
 
qmmp 1.1.10-1.1ubuntu2
qpdf 8.0.2-3
qprint 1.1.dfsg.2-2build1
 
 
 
qtchooser 64-ga1b6736-5
qtcore4-l10n 4:4.8.7+dfsg-7ubuntu1
qtop 2.3.4-1build1
qttranslations5-l10n 5.9.5-0ubuntu1
 
rake 12.3.1-1ubuntu0.1
rclone 1.36-3
re2c 1.0.1-1
readline-common 7.0-3
redis 5:5.0.7-3
redis-server 5:4.0.9-1ubuntu0.2
redis-tools 5:4.0.9-1ubuntu0.2
remmina 1.2.0-rcgit.29+dfsg-1ubuntu1.1
remmina-common 1.2.0-rcgit.29+dfsg-1ubuntu1.1
 
 
 
remote-tty 4.0-13build1
rfkill 2.31.1-0.4ubuntu3.6
rkhunter 1.4.6-2~ubuntu18.04.1
rpcbind 0.2.3-0.6
rrdtool 1.7.0-1build1
rsync 3.1.2-2.1ubuntu1.1
rsyslog 8.32.0-1ubuntu4
rsyslog-pgsql 8.32.0-1ubuntu4
rtkit 0.11-6
rtmpdump 2.4+20151223.gitfa8646d.1-1
ruby 1:2.5.1
ruby-bundler 2.1.4-1
 
ruby-did-you-mean 1.2.0-2
ruby-json 2.1.0+dfsg-2
ruby-minitest 5.10.3-1
ruby-molinillo 0.6.4-1
ruby-net-http-persistent 2.9.4-2
ruby-net-telnet 0.1.1-2
ruby-power-assert 0.3.0-1
ruby-test-unit 3.2.5-1
ruby-thor 0.20.3-2
ruby-xmlrpc 0.3.0-2
ruby2.5 2.5.1-1ubuntu1.6
 
ruby2.5-doc 2.5.7-1
rubygems-integration 1.11
runit-helper 2.8.15
rutokenplugin 4.4.1-1
sa-compile 3.4.2-0ubuntu0.18.04.4
samba 2:4.7.6+dfsg~ubuntu-0ubuntu2.16
samba-common 2:4.7.6+dfsg~ubuntu-0ubuntu2.16
samba-common-bin 2:4.7.6+dfsg~ubuntu-0ubuntu2.16
samba-dsdb-modules 2:4.7.6+dfsg~ubuntu-0ubuntu2.16
 
samba-vfs-modules 2:4.7.6+dfsg~ubuntu-0ubuntu2.16
sane-utils 1.0.27-1~experimental3ubuntu2.2
sasl2-bin 2.1.27~101-g0780600+dfsg-3ubuntu2.1
sbsigntool 0.6-3.2ubuntu2
scdaemon 2.2.4-1ubuntu1.2
seabios 1.10.2-1ubuntu1
seahorse 3.20.0-5
secureboot-db 1.4~ubuntu0.18.04.1
sed 4.4-2
sendmail-base 8.15.2-10
sendmail-bin 8.15.2-10
sendmail-cf 8.15.2-10
sensible-utils 0.0.12+nmu1
session-migration 0.3.3
sgml-base 1.29
sgml-data 2.0.10
sgmlspl 1.03ii-36
shared-mime-info 1.9-2
sharutils 1:4.15.2-3
shc 3.8.9b-1build1
shorewall 5.2.3.4-1
shorewall-core 5.2.3.4-1
signing-party 2.7-1
slurm 0.4.3-2build2
smbclient 2:4.7.6+dfsg~ubuntu-0ubuntu2.16
smplayer 20.4.2-1~bionic1
smplayer-skins 2:15.2.0-1~bionic1
smplayer-themes 2:18.6.0-1~bionic1
smtube 20.1.0-1~bionic1
snapd 2.42.1+18.04
snetz 0.1-1
sniffit 0.4.0-2
snmp 5.7.3+dfsg-1.8ubuntu3.3
snmpd 5.7.3+dfsg-1.8ubuntu3.3
sntp 1:4.2.8p10+dfsg-5ubuntu7.1
software-properties-common 0.96.24.32.12
software-properties-gtk 0.96.24.32.12
sonnet-plugins 5.44.0-0ubuntu1
sound-icons 0.1-6
sound-theme-freedesktop 0.8-2ubuntu1
spamassassin 3.4.2-0ubuntu0.18.04.4
spamc 3.4.2-0ubuntu0.18.04.4
speech-dispatcher 0.8.8-1ubuntu1
 
speech-dispatcher-espeak-ng 0.8.8-1ubuntu1
sphinx-common 1.6.7-1ubuntu1
sphinx-rtd-theme-common 0.2.4-1
spice-vdagent 0.17.0-1ubuntu2
sqlite3 3.22.0-1ubuntu0.3
squashfs-tools 1:4.3-6ubuntu0.18.04.1
ssh 1:7.6p1-4ubuntu0.3
ssh-askpass 1:1.2.4.1-10
ssh-audit 1.7.0-2
ssh-import-id 5.7-0ubuntu1.1
sshfs 2.8-1
ssl-cert 1.0.39
strace 4.21-1ubuntu1
strongswan-charon 5.6.2-1ubuntu2.5
strongswan-libcharon 5.6.2-1ubuntu2.5
strongswan-starter 5.6.2-1ubuntu2.5
sudo 1.8.21p2-3ubuntu1.2
syslinux 3:6.03+dfsg1-2
syslinux-common 3:6.03+dfsg1-2
syslinux-legacy 2:3.63+dfsg-2ubuntu9
sysstat 11.6.1-1ubuntu0.1
system-config-printer 1.5.11-1ubuntu2
system-config-printer-common 1.5.11-1ubuntu2
system-config-printer-udev 1.5.11-1ubuntu2
systemd 237-3ubuntu10.41
systemd-sysv 237-3ubuntu10.41
sysvinit-utils 2.88dsf-59.10ubuntu1
t1utils 1.41-2
talk 0.17-15build2
tar 1.29b-2ubuntu0.1
tcl 8.6.0+9
tcl8.6 8.6.8+dfsg-3
tcpdump 4.9.3-0ubuntu0.18.04.1
tdb-tools 1.3.15-2
telnet 0.17-41
terminator 1.91-1
tex-common 6.09
texlive-base 2017.20180305-1
texlive-binaries 2017.20170613.44572-8ubuntu0.1
texlive-fonts-recommended 2017.20180305-1
texlive-formats-extra 2017.20180305-2
texlive-latex-base 2017.20180305-1
texlive-latex-extra 2017.20180305-2
texlive-latex-recommended 2017.20180305-1
texlive-pictures 2017.20180305-1
texlive-plain-generic 2017.20180305-2
texlive-xetex 2017.20180305-1
tftp-hpa 5.2+20150808-1ubuntu3
tftpd-hpa 5.2+20150808-1ubuntu3
thermald 1.7.0-5ubuntu5
thunderbird 1:68.8.1+build1-0ubuntu0.18.04.1
tiger 1:3.2.4~rc1-1
tigervnc-common 1.7.0+dfsg-8ubuntu2
tigervnc-standalone-server 1.7.0+dfsg-8ubuntu2
tightvncserver 1.3.10-0ubuntu4
time 1.7-25.1build1
tinymce 3.4.8+dfsg0-2
tipa 2:1.3-20
tk 8.6.0+9
tk8.5 8.5.19-3
tk8.6 8.6.8-4
tk8.6-blt2.5 2.5.3+dfsg-4
transmission 2.92-3ubuntu2
transmission-common 2.92-3ubuntu2
transmission-gtk 2.92-3ubuntu2
tree 1.7.0-5
tripwire 2.4.3.1-2
ttf-bitstream-vera 1.10-8
ttf-mscorefonts-installer 3.6ubuntu2
tzdata 2020a-0ubuntu0.18.04
ubuntu-advantage-tools 17
ubuntu-artwork 1:16.10+18.04.20181005-0ubuntu1
ubuntu-desktop 1.417.4
ubuntu-docs 18.04.4
ubuntu-drivers-common 1:0.5.2.5
ubuntu-keyring 2018.09.18.1~18.04.0
ubuntu-minimal 1.417.4
ubuntu-mono 16.10+18.04.20181005-0ubuntu1
ubuntu-release-upgrader-core 1:18.04.37
ubuntu-release-upgrader-gtk 1:18.04.37
ubuntu-report 1.3.2
ubuntu-restricted-addons 26
ubuntu-restricted-extras 66
ubuntu-session 3.28.1-0ubuntu3
ubuntu-settings 18.04.7
ubuntu-software 3.28.1-0ubuntu4.18.04.15
ubuntu-sounds 0.13
ubuntu-standard 1.417.4
ubuntu-system-service 0.3.1
ubuntu-wallpapers 18.04.1-0ubuntu1
ubuntu-wallpapers-bionic 18.04.1-0ubuntu1
ucf 3.0038+nmu1
udev 237-3ubuntu10.41
udisks2 2.7.6-3ubuntu0.2
ufw 0.36-0ubuntu0.18.04.1
unar 1.10.1-2build3
unattended-upgrades 1.1ubuntu1.18.04.14
unhide 20130526-1
unhide.rb 22-2
unifi 5.12.72-13103-1
unrar 1:5.5.8-1
unzip 6.0-21ubuntu1
update-inetd 4.50
update-manager 1:18.04.11.12
update-manager-core 1:18.04.11.12
update-notifier 3.192.1.7
update-notifier-common 3.192.1.7
upower 0.99.7-2ubuntu0.18.04.1
ureadahead 0.100.0-21
usb-creator-common 0.3.5ubuntu18.04.2
usb-modeswitch 2.5.2+repack0-2ubuntu1
usb-modeswitch-data 20170806-2
usbmuxd 1.1.0-2ubuntu0.1
usbutils 1:007-4build1
util-linux 2.31.1-0.4ubuntu3.6
 
uuid-runtime 2.31.1-0.4ubuntu3.6
 
 
vim 2:8.0.1453-1ubuntu1.3
vim-addon-manager 0.5.7
vim-common 2:8.0.1453-1ubuntu1.3
vim-gtk3 2:8.0.1453-1ubuntu1.3
vim-gui-common 2:8.0.1453-1ubuntu1.3
vim-nox 2:8.0.1453-1ubuntu1.3
vim-runtime 2:8.0.1453-1ubuntu1.3
vim-scripts 20130814ubuntu1
vim-snippets 1.0.0-4
vim-tiny 2:8.0.1453-1ubuntu1.3
vim-ultisnips 3.1-3
virtualbox 5.2.34-dfsg-0~ubuntu18.04.1
virtualbox-dkms 5.2.34-dfsg-0~ubuntu18.04.1
virtualbox-ext-pack 5.2.34-1~ubuntu18.04.1
virtualbox-guest-additions-iso 5.2.34-1~ubuntu18.04.1
virtualbox-guest-utils 5.2.34-dfsg-0~ubuntu18.04.1
virtualbox-qt 5.2.34-dfsg-0~ubuntu18.04.1
vlan 1.9-3.2ubuntu6
vlc 3.0.8-0ubuntu18.04.1
vlc-bin 3.0.8-0ubuntu18.04.1
vlc-data 3.0.8-0ubuntu18.04.1
vlc-l10n 3.0.8-0ubuntu18.04.1
 
 
 
 
 
 
 
 
 
 
vlc-plugin-vlsub 0.10.2-2
vnc-java 3.3.3r2-9
vnc4server 4.1.1+xorg4.3.0-37.3ubuntu2
vncsnapshot 1.2a-5.1build1
vnstat 1.18-1
vtgrab 0.1.8-3ubuntu2
wamerican 2017.08.24-1
wbritish 2017.08.24-1
wdiff 1.2.2-2
webmin 1.941
wget 1.19.4-1ubuntu2.2
whiptail 0.52.20-1ubuntu1
whois 5.3.0
whoopsie 0.2.62ubuntu0.4
whoopsie-preferences 0.19
wine-development 3.6-1
 
winetricks 0.0+20180217-1
wireless-regdb 2018.05.09-0ubuntu1~18.04.1
wireless-tools 30~pre9-12ubuntu1
wpasupplicant 2:2.6-15ubuntu2.5
wukrainian 1.7.1-2
wwwconfig-common 0.3.0
x11-apps 7.7+6ubuntu1
x11-common 1:7.7+20
x11-session-utils 7.7+2build1
x11-utils 7.7+3build1
x11-xkb-utils 7.7+3ubuntu0.18.04.1
x11-xserver-utils 7.7+7build1
x11proto-core-dev 2020.1-1
x11proto-dev 2020.1-1
x264 2:0.152.2854+gite9a5903-2
xauth 1:1.0.10-1
xbase-clients 1:7.7+19ubuntu7.1
xbitmaps 1.1.1-2
xbrlapi 5.5-4ubuntu2.0.1
xca 1.4.1-1fakesync1
xclip 0.12+svn84-4build1
xcursor-themes 1.0.4-1
xdg-desktop-portal 1.0.3-0ubuntu0.2
xdg-desktop-portal-gtk 1.0.2-0ubuntu1.1
xdg-user-dirs 0.17-1ubuntu1
xdg-user-dirs-gtk 0.10-2
xdg-utils 1.1.3-2
xfonts-100dpi 1:1.0.4+nmu1
xfonts-75dpi 1:1.0.4+nmu1
xfonts-base 1:1.0.4+nmu1
xfonts-encodings 1:1.0.4-2
xfonts-scalable 1:1.0.3-1.1
xfonts-utils 1:7.7+6
xinit 1.3.4-3ubuntu3
xinput 1.6.2-1build1
xkb-data 2.29-2
xml-core 0.18
xmlto 0.0.28-2
xmount 0.7.3-1build2
xorg 1:7.7+19ubuntu7.1
xorg-docs-core 1:1.7.1-1.1
xorg-sgml-doctools 1:1.11-1
xrdp 0.9.5-2
xsel 1.2.0-4
xserver-common 2:1.19.6-1ubuntu4.4
xserver-xephyr 2:1.19.6-1ubuntu4.4
xserver-xorg-core-hwe-18.04 2:1.20.5+git20191008-0ubuntu1~18.04.1
xserver-xorg-hwe-18.04 1:7.7+19ubuntu8~18.04.3
xserver-xorg-input-all-hwe-18.04 1:7.7+19ubuntu8~18.04.3
xserver-xorg-input-libinput-hwe-18.04 0.28.1-1~18.04.1
xserver-xorg-input-wacom-hwe-18.04 1:0.36.1-0ubuntu1~18.04.1
xserver-xorg-legacy-hwe-18.04 2:1.20.5+git20191008-0ubuntu1~18.04.1
xserver-xorg-video-all-hwe-18.04 1:7.7+19ubuntu8~18.04.3
xserver-xorg-video-amdgpu-hwe-18.04 19.0.1-1ubuntu1~18.04.1
xserver-xorg-video-ati-hwe-18.04 1:19.0.1-1ubuntu1~18.04.1
xserver-xorg-video-fbdev-hwe-18.04 1:0.5.0-1ubuntu1~18.04.1
xserver-xorg-video-intel-hwe-18.04 2:2.99.917+git20171229-1ubuntu1~18.04.1
xserver-xorg-video-nouveau-hwe-18.04 1:1.0.16-1~18.04.1
xserver-xorg-video-qxl-hwe-18.04 0.1.5-2build2~18.04.1
xserver-xorg-video-radeon-hwe-18.04 1:19.0.1-1ubuntu1~18.04.1
xserver-xorg-video-vesa-hwe-18.04 1:2.4.0-1~18.04.1
xserver-xorg-video-vmware-hwe-18.04 1:13.3.0-2build1~18.04.1
xsltproc 1.1.29-5ubuntu0.2
xtail 2.1-6
xtrans-dev 1.4.0-1
xul-ext-ubufox 3.4-0ubuntu1.17.10.1
xwayland 2:1.19.6-1ubuntu4.4
xxd 2:8.0.1453-1ubuntu1.3
xxdiff 1:4.0.1+hg487+dfsg-1
xxdiff-scripts 1:4.0.1+hg487+dfsg-1
xz-utils 5.2.2-1.3
yelp 3.26.0-1ubuntu2
yelp-xsl 3.20.1-4
yhsm-tools 1.2.0-1
ykcs11 2.0.0-2~ppa1~bionic1
ykneomgr 0.1.8-2.2
youtube-dl 2018.03.14-1ubuntu18.04.1
yubico-piv-tool 2.0.0-2~ppa1~bionic1
yubihsm-connector 2.0.0-1
yubihsm-pkcs11 2.0.1-1
yubihsm-setup 2.1.0-1
yubihsm-shell 2.0.1-1
yubihsm-wrap 2.0.1-1
yubikey-manager 3.1.1~ppa1~bionic1
yubikey-manager-qt 1.1.3~ppa1~bionic1
yubikey-personalization 1.20.0-1~ppa1~bionic1
yubikey-personalization-gui 3.1.25-1~ppa1~bionic1
yubikey-piv-manager 1.3.0-1.1
yubikey-server-c 0.5-1build3
yubikey-val 2.38-2
yubioath-desktop 4.3.6~ppa1~bionic1
yubiserver 0.6-3build1
zenity 3.28.1-1
zenity-common 3.28.1-1
zescrow-client 1.7-0ubuntu1
zfs-zed 0.7.5-1ubuntu16.9
zfsutils-linux 0.7.5-1ubuntu16.9
zip 3.0-11build1
 
 
 
zulucrypt-cli 5.4.0-2build1
zulucrypt-gui 5.4.0-2build1
zulumount-cli 5.4.0-2build1
zulumount-gui 5.4.0-2build1
zulupolkit 5.4.0-2build1
zulusafe-cli 5.4.0-2build1
